{
  "private_key_id": "aeca535d53500ccc9116f4899a236648c0db79a7",
  "private_key": "-----BEGIN PRIVATE KEY-----\nMIIEvQIBADANBgkqhkiG9w0BAQEFAASCBKcwggSjAgEAAoIBAQDI/GxoMlgrdPAT\nzPuwQbDTEJFvYYI0uV3k5zb4ZghWPhJ7fzITELwpi7RymefSsXVV3HmEgOK9BhCw\nGoF/v77FSpMWuxXqJ8SVsScdKY9pwQVLVrSc0jb9mh84Q1yAYPzz0owUaAf9qgBA\nnKApKfntcG7FWRRL19mUBPzJzCUZuRjwqbqzmwtXR3sx0xKu8lBcs/8zlyDzla4/\nwcAgRv9y/Glqlf86ZYjOn84wWE3O6yJyaouLyVShmyxRnqyMr0lMwu5on4S0MT1R\nrKn6Yu1j54sMhltAYeEIAtdWDSUP2hW8fPZI87JIsFYd8dkdlSMojovFPwQwXxk0\n9F+kMW0fAgMBAAECggEBAJmqfUwRKd5X8vKAp/Jz1zkYksmA2OdszoAj06CJilg9\n7y2i62suQV7WZKm2SEuLyHVUM0h+rlztVTb/nQFKXhZD1T/s3G2B6Ei3AHvIedDW\ndjDK4x5/jvHIs5P11LSG8v+Me/NiMrHcF4NO/Rlb8a17aAXU/LKcHsuQIKI9RiRq\nR5ULWbfpnMNJuXDwlA7gXFbpAXiXErnrNul7k+YDJVn8AReaSczBQ1Cfn7JLcGR9\nT1DBzKreSr2uQjWM6Ekkd6VKNn8FcRnNDxyL6BHwbG13aR+UqmE4FzXG3UKi+KU8\n82pM7J8gIgRynUbirkhw8F2Qkj2ifQmOYb2on+7ZkKECgYEA979XGA5iVwKqSWPm\nNoOCSI62oXTaQZ1l3ZFgyGslB5SnpUCug6GZoNzZxuaYNVb/oyHn4pVauc33IDCz\ny58fVcfKus0Pc1U37NLDU2/njSD8OmqDTsVhgK2ygM7SPM5BiT9C+HNKGvHhprxN\nbANclhESutpz0jDs7SwXpX7MVZECgYEAz65ToLFAbQYXHmL05DlvL7cdWiPfxAYN\nJqh4XsuXh/bEFlrxuCTpjwbdNOhItWDieHkd3b2w4v9ei1CNyDR3mj6ss24iHXFG\nFB+5b/mDx0/UpJ2hIOrWJyHFen5W0l4wM/aMv6RGPVHJevhVnORa2WsqVnJZT48E\n0jY/0c8Qf68CgYAj+CDB+lymu1lT3HAxG/jPZgD4AgoqGpsOhyvhDUVMC3YnlPOB\nYvX2F/p6WUJiBCaLXcHX8M1CSrgFcWy5NHoNLzus0Vbb7NR4ysTXGVkp8U8NgCde\nSWP1lcJj1yNI9r0nGwszHTH2JYYYeiBXfUl09Dee71Z/fuD3Mj6gpX8vMQKBgBBE\nGh6y41XmrTbfD0k0ymWVVQIzXxpOUwddGJhsH8ExbahGlToUAgsGwZqcOt2h6fr/\nmXw9mDYfRDtrIr+0hE2bbRFcpeVicteuqGqBw3V/5irCgdU/L2i/N2VhsdEmOWZI\ngDueVTYGSt6LxsDUDd2LjDRbHm2hyQHh59u5+RPXAoGAHd6bsrHvByo30ld7q4Gq\naVXla/E5iKkLXfaeQMo4vBkIkk3mvb2YZYvurCFsDnHKvibpK9NLYlVR4XoUn3y3\nBIR0sd17yopD7Dh68GKpSywqfqgyBYoRDgPz0sqYOTW5Fmg+oIP13xfIS8MudDRe\nr6YrFBRcFEwwcTZCzaODVqk\u003d\n-----END PRIVATE KEY-----\n",
  "client_email": "713341012778-2o1sh9hej82rltdhsase8acmhbb0r7qj@developer.gserviceaccount.com",
  "client_id": "713341012778-2o1sh9hej82rltdhsase8acmhbb0r7qj.apps.googleusercontent.com",
  "type": "service_account"
}
