threadId,From,To,Delivered-To,Date,Time
14c70b52a66f5614,Evan Tindell <tindell.evan@gmail.com>,"""thesophists@googlegroups.com"" <thesophists@googlegroups.com>",eric.adum@gmail.com,03/31/2015,16:39:44
14c70b52a66f5614,Erik Dykema <dykema@gmail.com>,"""thesophists@googlegroups.com"" <thesophists@googlegroups.com>",eric.adum@gmail.com,04/01/2015,14:52:29
14c70b52a66f5614,Kyle Doherty <kyledoherty@gmail.com>,thesophists@googlegroups.com,eric.adum@gmail.com,04/01/2015,16:38:57
14c70b52a66f5614,Ryan Ballentine <rballentine@gmail.com>,thesophists@googlegroups.com,eric.adum@gmail.com,04/01/2015,16:55:22
14c70b52a66f5614,Erik Dykema <dykema@gmail.com>,"""thesophists@googlegroups.com"" <thesophists@googlegroups.com>",eric.adum@gmail.com,04/01/2015,17:05:27
14c70b52a66f5614,Brennan Sherry <brennan.sherry@gmail.com>,"""thesophists@googlegroups.com"" <thesophists@googlegroups.com>",eric.adum@gmail.com,04/01/2015,17:14:47
14c70b52a66f5614,Erik Dykema <dykema@gmail.com>,"""thesophists@googlegroups.com"" <thesophists@googlegroups.com>",eric.adum@gmail.com,04/01/2015,17:35:27
14c70b52a66f5614,Brennan Sherry <brennan.sherry@gmail.com>,"""thesophists@googlegroups.com"" <thesophists@googlegroups.com>",eric.adum@gmail.com,04/01/2015,17:43:01
14c70b52a66f5614,Erik Dykema <dykema@gmail.com>,"""thesophists@googlegroups.com"" <thesophists@googlegroups.com>",eric.adum@gmail.com,04/01/2015,17:44:37
14c70b52a66f5614,Erik Dykema <dykema@gmail.com>,"""thesophists@googlegroups.com"" <thesophists@googlegroups.com>",eric.adum@gmail.com,04/01/2015,17:47:34
14c70b52a66f5614,Brennan Sherry <brennan.sherry@gmail.com>,"""thesophists@googlegroups.com"" <thesophists@googlegroups.com>",eric.adum@gmail.com,04/01/2015,17:54:07
14c70b52a66f5614,Evan Tindell <tindell.evan@gmail.com>,"""thesophists@googlegroups.com"" <thesophists@googlegroups.com>",eric.adum@gmail.com,04/01/2015,18:52:35
14c70b52a66f5614,Jason Liang <jason.g.liang@gmail.com>,thesophists@googlegroups.com,eric.adum@gmail.com,04/01/2015,19:05:12
14c70b52a66f5614,Nitin Perumbeti <nitper@gmail.com>,thesophists@googlegroups.com,eric.adum@gmail.com,04/01/2015,20:11:52
14c7618fb7c5214a,Kevin Rice <kevtrice@gmail.com>,"""the.sophists"" <thesophists@googlegroups.com>",eric.adum@gmail.com,04/01/2015,17:47:48
14c3946db1600ff2,Ravi Mishra <ravimishra@gmail.com>,"""thesophists@googlegroups.com"" <thesophists@googlegroups.com>",eric.adum@gmail.com,03/20/2015,22:21:04
14c3946db1600ff2,Ravi Mishra <ravimishra@gmail.com>,"""thesophists@googlegroups.com"" <thesophists@googlegroups.com>",eric.adum@gmail.com,03/24/2015,20:16:12
14c23474f5a0ce1f,Evan Tindell <tindell.evan@gmail.com>,"""thesophists@googlegroups.com"" <thesophists@googlegroups.com>",eric.adum@gmail.com,03/16/2015,15:49:35
14350c94b5a6644a,Christopher Sipola <sipolac@gmail.com>,thesophists@googlegroups.com,eric.adum@gmail.com,01/02/2014,02:29:45
14350c94b5a6644a,Jason Liang <jason.g.liang@gmail.com>,thesophists@googlegroups.com,eric.adum@gmail.com,01/22/2014,00:37:29
14350c94b5a6644a,Jason Liang <jason.g.liang@gmail.com>,thesophists@googlegroups.com,eric.adum@gmail.com,01/22/2014,00:39:23
14350c94b5a6644a,Evan Tindell <tindell.evan@gmail.com>,"""thesophists@googlegroups.com"" <thesophists@googlegroups.com>",eric.adum@gmail.com,01/22/2014,19:46:58
14350c94b5a6644a,Christopher Sipola <sipolac@gmail.com>,thesophists@googlegroups.com,eric.adum@gmail.com,03/11/2015,02:59:04
14350c94b5a6644a,Brennan Sherry <brennan.sherry@gmail.com>,"""thesophists@googlegroups.com"" <thesophists@googlegroups.com>",eric.adum@gmail.com,03/11/2015,03:18:42
14350c94b5a6644a,Christopher Sipola <sipolac@gmail.com>,thesophists@googlegroups.com,eric.adum@gmail.com,03/11/2015,18:03:11
14bbc558ecadb8aa,Joe Miler <joe.miler@gmail.com>,"""thesophists@googlegroups.com"" <thesophists@googlegroups.com>",eric.adum@gmail.com,02/24/2015,16:04:53
14bbc558ecadb8aa,David Iba <davidiba@gmail.com>,thesophists@googlegroups.com,eric.adum@gmail.com,02/24/2015,20:28:52
14bbc558ecadb8aa,Erik Dykema <dykema@gmail.com>,"""thesophists@googlegroups.com"" <thesophists@googlegroups.com>",eric.adum@gmail.com,02/24/2015,20:30:17
14bbc558ecadb8aa,Chisoanya Ibegbu <chiso.ibegbu@gmail.com>,thesophists@googlegroups.com,eric.adum@gmail.com,02/24/2015,20:45:38
14bbc558ecadb8aa,Kwame Hall <kwamejh@gmail.com>,thesophists@googlegroups.com,eric.adum@gmail.com,02/24/2015,23:00:38
14bbc558ecadb8aa,Alejandro Gonzalez <alejandro523@gmail.com>,"""thesophists@googlegroups.com"" <thesophists@googlegroups.com>",eric.adum@gmail.com,02/24/2015,23:07:16
14bbc558ecadb8aa,Joe Miler <joe.miler@gmail.com>,"""thesophists@googlegroups.com"" <thesophists@googlegroups.com>",eric.adum@gmail.com,02/25/2015,01:43:15
14bbc558ecadb8aa,Erik Dykema <dykema@gmail.com>,"""thesophists@googlegroups.com"" <thesophists@googlegroups.com>",eric.adum@gmail.com,02/25/2015,02:16:51
14bbc558ecadb8aa,David Iba <davidiba@gmail.com>,thesophists@googlegroups.com,eric.adum@gmail.com,02/26/2015,11:27:35
14bbc558ecadb8aa,"""Christopher D'Annunzio"" <danunz@gmail.com>","""thesophists@googlegroups.com"" <thesophists@googlegroups.com>",eric.adum@gmail.com,02/26/2015,12:44:30
14bbc558ecadb8aa,Joe Miler <joe.miler@gmail.com>,"""thesophists@googlegroups.com"" <thesophists@googlegroups.com>",eric.adum@gmail.com,02/26/2015,15:40:27
14bbc558ecadb8aa,Walter Song <ywsong14@gmail.com>,"""thesophists@googlegroups.com"" <thesophists@googlegroups.com>",eric.adum@gmail.com,02/26/2015,15:57:08
14bbc558ecadb8aa,Joe Miler <joe.miler@gmail.com>,"""thesophists@googlegroups.com"" <thesophists@googlegroups.com>",eric.adum@gmail.com,03/04/2015,15:39:57
14bbc558ecadb8aa,Joe Miler <joe.miler@gmail.com>,"""thesophists@googlegroups.com"" <thesophists@googlegroups.com>",eric.adum@gmail.com,03/06/2015,16:35:02
14bbc558ecadb8aa,Joe Miler <joe.miler@gmail.com>,"""thesophists@googlegroups.com"" <thesophists@googlegroups.com>",eric.adum@gmail.com,03/09/2015,14:22:04
14bbc558ecadb8aa,"""Christopher D'Annunzio"" <danunz@gmail.com>","""thesophists@googlegroups.com"" <thesophists@googlegroups.com>",eric.adum@gmail.com,03/09/2015,22:19:12
14bbc558ecadb8aa,Joe Miler <joe.miler@gmail.com>,"""thesophists@googlegroups.com"" <thesophists@googlegroups.com>",eric.adum@gmail.com,03/10/2015,15:30:33
14bf2b53ade99e72,Ryan Ballentine <rballentine@gmail.com>,"""thesophists@googlegroups.com"" <thesophists@googlegroups.com>",eric.adum@gmail.com,03/07/2015,05:28:25
14bc719286a639da,Eric Barba <eric.barba@gmail.com>,thesophists@googlegroups.com,eric.adum@gmail.com,02/26/2015,18:14:48
14b93e8a24976868,Kevin Rice <kevtrice@gmail.com>,"""the.sophists"" <thesophists@googlegroups.com>",eric.adum@gmail.com,02/16/2015,19:40:49
14b93e8a24976868,Brennan Sherry <brennan.sherry@gmail.com>,"""thesophists@googlegroups.com"" <thesophists@googlegroups.com>",eric.adum@gmail.com,02/24/2015,05:46:57
13afb2e2f8fa7c33,Kevin Rice <kevtrice@gmail.com>,"""the.sophists"" <thesophists@googlegroups.com>",eric.adum@gmail.com,11/13/2012,19:10:16
13afb2e2f8fa7c33,Brennan Sherry <brennan.sherry@gmail.com>,thesophists@googlegroups.com,eric.adum@gmail.com,11/13/2012,19:21:22
13afb2e2f8fa7c33,Christopher Sipola <sipolac@gmail.com>,thesophists@googlegroups.com,eric.adum@gmail.com,11/13/2012,19:21:49
13afb2e2f8fa7c33,Ryan Ballentine <rballentine@gmail.com>,thesophists@googlegroups.com,eric.adum@gmail.com,11/13/2012,19:41:30
13afb2e2f8fa7c33,Brennan Sherry <brennan.sherry@gmail.com>,thesophists@googlegroups.com,eric.adum@gmail.com,11/13/2012,19:45:15
13afb2e2f8fa7c33,Ryan Ballentine <rballentine@gmail.com>,thesophists@googlegroups.com,eric.adum@gmail.com,11/13/2012,19:49:52
13afb2e2f8fa7c33,Kevin Rice <kevtrice@gmail.com>,thesophists@googlegroups.com,eric.adum@gmail.com,11/13/2012,20:24:31
13afb2e2f8fa7c33,Erik Dykema <dykema@gmail.com>,thesophists@googlegroups.com,eric.adum@gmail.com,11/13/2012,22:49:30
13afb2e2f8fa7c33,Ravi Mishra <ravimishra@gmail.com>,thesophists@googlegroups.com,eric.adum@gmail.com,11/14/2012,05:31:56
13afb2e2f8fa7c33,Evan Tindell <tindell.evan@gmail.com>,"""thesophists@googlegroups.com"" <thesophists@googlegroups.com>",eric.adum@gmail.com,01/15/2013,02:26:06
13afb2e2f8fa7c33,Jason Liang <jason.g.liang@gmail.com>,thesophists@googlegroups.com,eric.adum@gmail.com,04/30/2014,05:39:20
13afb2e2f8fa7c33,Kevin Rice <kevtrice@gmail.com>,"""the.sophists"" <thesophists@googlegroups.com>",eric.adum@gmail.com,04/30/2014,06:04:19
13afb2e2f8fa7c33,Evan Tindell <tindell.evan@gmail.com>,"""thesophists@googlegroups.com"" <thesophists@googlegroups.com>",eric.adum@gmail.com,04/30/2014,14:56:24
13afb2e2f8fa7c33,Kwame Hall <kwamejh@gmail.com>,thesophists@googlegroups.com,eric.adum@gmail.com,04/30/2014,19:53:39
13afb2e2f8fa7c33,Kwame Hall <kwamejh@gmail.com>,thesophists@googlegroups.com,eric.adum@gmail.com,04/30/2014,19:56:06
13afb2e2f8fa7c33,David Iba <davidiba@gmail.com>,thesophists@googlegroups.com,eric.adum@gmail.com,05/07/2014,00:20:55
13afb2e2f8fa7c33,Evan Tindell <tindell.evan@gmail.com>,"""thesophists@googlegroups.com"" <thesophists@googlegroups.com>",eric.adum@gmail.com,08/16/2014,14:32:58
13afb2e2f8fa7c33,Andrew Dallas <andrew.r.dallas@gmail.com>,"""thesophists@googlegroups.com"" <thesophists@googlegroups.com>",eric.adum@gmail.com,08/25/2014,13:14:59
13afb2e2f8fa7c33,Evan Tindell <tindell.evan@gmail.com>,"""thesophists@googlegroups.com"" <thesophists@googlegroups.com>",eric.adum@gmail.com,08/25/2014,16:49:51
13afb2e2f8fa7c33,Jason Liang <jason.g.liang@gmail.com>,thesophists@googlegroups.com,eric.adum@gmail.com,02/21/2015,01:53:31
14b988f762d1d8ab,Philip Deutsch <pmdizzle@gmail.com>,"""thesophists@googlegroups com"" <thesophists@googlegroups.com>",eric.adum@gmail.com,02/17/2015,17:21:52
149284382554badb,Andrew Dallas <andrew.r.dallas@gmail.com>,"""thesophists@googlegroups.com"" <thesophists@googlegroups.com>",eric.adum@gmail.com,10/19/2014,11:55:33
149284382554badb,"""stonemit@gmail.com"" <stonemit@gmail.com>",thesophists@googlegroups.com,eric.adum@gmail.com,11/13/2014,18:03:43
149284382554badb,Andrew Dallas <andrew.r.dallas@gmail.com>,"""thesophists@googlegroups.com"" <thesophists@googlegroups.com>",eric.adum@gmail.com,12/07/2014,18:17:20
149284382554badb,George Blaha <george@blahafamily.com>,The Sophists <thesophists@googlegroups.com>,eric.adum@gmail.com,02/13/2015,21:34:45
149284382554badb,Brennan Sherry <brennan.sherry@gmail.com>,"""thesophists@googlegroups.com"" <thesophists@googlegroups.com>",eric.adum@gmail.com,02/13/2015,21:58:28
149284382554badb,Erik Dykema <dykema@gmail.com>,"""thesophists@googlegroups.com"" <thesophists@googlegroups.com>",eric.adum@gmail.com,02/13/2015,22:07:29
14b5792fc0ca4146,George Blaha <george@blahafamily.com>,The Sophists <thesophists@googlegroups.com>,eric.adum@gmail.com,02/05/2015,02:30:23
14b5792fc0ca4146,Erik Dykema <dykema@gmail.com>,"""thesophists@googlegroups.com"" <thesophists@googlegroups.com>",eric.adum@gmail.com,02/05/2015,04:16:16
14b5792fc0ca4146,Erik Dykema <dykema@gmail.com>,"""thesophists@googlegroups.com"" <thesophists@googlegroups.com>",eric.adum@gmail.com,02/09/2015,00:25:09
14b422cada4c9e21,Alejandro Gonzalez <alejandro523@gmail.com>,"""thesophists@googlegroups.com"" <thesophists@googlegroups.com>",eric.adum@gmail.com,01/31/2015,22:46:38
14b422cada4c9e21,Erik Dykema <dykema@gmail.com>,"""thesophists@googlegroups.com"" <thesophists@googlegroups.com>",eric.adum@gmail.com,01/31/2015,23:24:24
14b422cada4c9e21,Ravi Mishra <ravimishra@gmail.com>,"""thesophists@googlegroups.com"" <thesophists@googlegroups.com>",eric.adum@gmail.com,02/02/2015,13:39:56
14b422cada4c9e21,Nick Sisler <nick.sisler@gmail.com>,thesophists@googlegroups.com,eric.adum@gmail.com,02/02/2015,15:28:31
14b422cada4c9e21,DeRon Brown <dmbrown2010@gmail.com>,The Sophists <thesophists@googlegroups.com>,eric.adum@gmail.com,02/02/2015,17:15:23
14b422cada4c9e21,"""Christopher D'Annunzio"" <danunz@gmail.com>","""thesophists@googlegroups.com"" <thesophists@googlegroups.com>",eric.adum@gmail.com,02/03/2015,12:49:30
14b422cada4c9e21,Stewart Park <stewartjpark@gmail.com>,"""thesophists@googlegroups.com"" <thesophists@googlegroups.com>",eric.adum@gmail.com,02/03/2015,13:04:24
14b422cada4c9e21,Ebberly Strathairn <estrathairn@gmail.com>,thesophists@googlegroups.com,eric.adum@gmail.com,02/03/2015,13:20:58
14b24d7a6c01a93d,Jason Liang <jason.g.liang@gmail.com>,thesophists@googlegroups.com,eric.adum@gmail.com,01/26/2015,06:04:26
14b24d7a6c01a93d,Brennan Sherry <brennan.sherry@gmail.com>,"""thesophists@googlegroups.com"" <thesophists@googlegroups.com>",eric.adum@gmail.com,01/26/2015,18:10:18
14b24d7a6c01a93d,Jason Liang <jason.g.liang@gmail.com>,thesophists@googlegroups.com,eric.adum@gmail.com,01/26/2015,18:21:07
14b24d7a6c01a93d,Jason Liang <jason.g.liang@gmail.com>,thesophists@googlegroups.com,eric.adum@gmail.com,01/26/2015,18:23:00
14b24d7a6c01a93d,Alejandro Gonzalez <alejandro523@gmail.com>,"""thesophists@googlegroups.com"" <thesophists@googlegroups.com>",eric.adum@gmail.com,01/26/2015,18:37:55
14b24d7a6c01a93d,Evan Tindell <tindell.evan@gmail.com>,"""thesophists@googlegroups.com"" <thesophists@googlegroups.com>",eric.adum@gmail.com,01/26/2015,19:23:06
14b24d7a6c01a93d,"""Christopher D'Annunzio"" <danunz@gmail.com>","""thesophists@googlegroups.com"" <thesophists@googlegroups.com>",eric.adum@gmail.com,01/29/2015,14:32:02
14b24d7a6c01a93d,Andrew Jensen <ajensen796@googlemail.com>,thesophists@googlegroups.com,eric.adum@gmail.com,01/30/2015,01:45:57
14b0698d1a4b1fd3,Kevin Rice <kevtrice@gmail.com>,"""the.sophists"" <thesophists@googlegroups.com>",eric.adum@gmail.com,01/20/2015,09:07:12
14b0698d1a4b1fd3,Kwame Hall <kwamejh@gmail.com>,thesophists@googlegroups.com,eric.adum@gmail.com,01/21/2015,10:16:05
14b0698d1a4b1fd3,Evan Tindell <tindell.evan@gmail.com>,"""thesophists@googlegroups.com"" <thesophists@googlegroups.com>",eric.adum@gmail.com,01/26/2015,22:48:04
14b0698d1a4b1fd3,Austen McRae <austen.mcrae@gmail.com>,"""thesophists@googlegroups.com"" <thesophists@googlegroups.com>",eric.adum@gmail.com,01/26/2015,23:18:10
14ab37423d850149,David Shin <shin.david@gmail.com>,"""thesophists@googlegroups.com"" <thesophists@googlegroups.com>",eric.adum@gmail.com,01/04/2015,05:39:00
14ab37423d850149,Evan Tindell <tindell.evan@gmail.com>,"""thesophists@googlegroups.com"" <thesophists@googlegroups.com>",eric.adum@gmail.com,01/04/2015,16:04:41
14ab37423d850149,David Shin <shin.david@gmail.com>,"""thesophists@googlegroups.com"" <thesophists@googlegroups.com>",eric.adum@gmail.com,01/05/2015,04:23:16
14ab37423d850149,Chase Lochmiller <chaselochmiller@gmail.com>,"""thesophists@googlegroups.com"" <thesophists@googlegroups.com>",eric.adum@gmail.com,01/05/2015,04:27:46
14ab37423d850149,Erik Dykema <dykema@gmail.com>,"""thesophists@googlegroups.com"" <thesophists@googlegroups.com>",eric.adum@gmail.com,01/05/2015,13:45:04
14ab37423d850149,Chase Lochmiller <chaselochmiller@gmail.com>,"""thesophists@googlegroups.com"" <thesophists@googlegroups.com>",eric.adum@gmail.com,01/23/2015,03:38:53
14ab37423d850149,David Shin <shin.david@gmail.com>,"""thesophists@googlegroups.com"" <thesophists@googlegroups.com>",eric.adum@gmail.com,01/23/2015,14:51:29
14ab37423d850149,Chase Lochmiller <chaselochmiller@gmail.com>,"""thesophists@googlegroups.com"" <thesophists@googlegroups.com>",eric.adum@gmail.com,01/23/2015,16:11:24
14a9af53703b2e95,Kevin Rice <kevtrice@gmail.com>,"""the.sophists"" <thesophists@googlegroups.com>",eric.adum@gmail.com,12/30/2014,11:29:08
14a9af53703b2e95,Joe Miler <joe.miler@gmail.com>,thesophists@googlegroups.com,eric.adum@gmail.com,01/02/2015,18:22:35
14a9af53703b2e95,Jason Liang <jason.g.liang@gmail.com>,thesophists@googlegroups.com,eric.adum@gmail.com,01/02/2015,20:05:56
14a9af53703b2e95,Philip Deutsch <pmdizzle@gmail.com>,"""thesophists@googlegroups com"" <thesophists@googlegroups.com>",eric.adum@gmail.com,01/03/2015,21:35:34
14a9af53703b2e95,Jason Liang <jason.g.liang@gmail.com>,thesophists@googlegroups.com,eric.adum@gmail.com,01/03/2015,21:38:42
14a9af53703b2e95,Ravi Mishra <ravimishra@gmail.com>,"""thesophists@googlegroups.com"" <thesophists@googlegroups.com>",eric.adum@gmail.com,01/04/2015,14:28:25
14a9af53703b2e95,"""Christopher D'Annunzio"" <danunz@gmail.com>","""thesophists@googlegroups.com"" <thesophists@googlegroups.com>",eric.adum@gmail.com,01/23/2015,12:59:05
14b0e0307f3b289d,Philip Deutsch <pmdizzle@gmail.com>,"""thesophists@googlegroups com"" <thesophists@googlegroups.com>",eric.adum@gmail.com,01/21/2015,19:40:54
14af8ab23ba664f4,Ebberly Strathairn <estrathairn@gmail.com>,thesophists@googlegroups.com,eric.adum@gmail.com,01/17/2015,16:12:52
14af8ab23ba664f4,Evan Tindell <tindell.evan@gmail.com>,"""thesophists@googlegroups.com"" <thesophists@googlegroups.com>",eric.adum@gmail.com,01/20/2015,19:22:28
14af8ab23ba664f4,Joe Miler <joe.miler@gmail.com>,"""thesophists@googlegroups.com"" <thesophists@googlegroups.com>",eric.adum@gmail.com,01/20/2015,20:11:20
12da558bb3099af5,Evan Tindell <tindell.evan@gmail.com>,thesophists@googlegroups.com,eric.adum@gmail.com,01/20/2011,21:32:49
12da558bb3099af5,Austen McRae <amcrae@mit.edu>,thesophists@googlegroups.com,eric.adum@gmail.com,01/20/2011,22:15:13
12da558bb3099af5,"""J.Miler"" <joe.miler@gmail.com>",thesophists@googlegroups.com,eric.adum@gmail.com,01/24/2011,20:34:12
12da558bb3099af5,Nitin Perumbeti <nitper@gmail.com>,thesophists@googlegroups.com,eric.adum@gmail.com,01/24/2011,20:40:45
12da558bb3099af5,Nitin Perumbeti <nitper@gmail.com>,thesophists@googlegroups.com,eric.adum@gmail.com,01/24/2011,21:25:43
12da558bb3099af5,Evan Tindell <tindell.evan@gmail.com>,"""thesophists@googlegroups.com"" <thesophists@googlegroups.com>",eric.adum@gmail.com,01/15/2015,15:18:30
14a28dd20fd65bfe,Jason Liang <jason.g.liang@gmail.com>,thesophists@googlegroups.com,eric.adum@gmail.com,12/08/2014,07:46:06
14a28dd20fd65bfe,Nick Sisler <nick.sisler@gmail.com>,thesophists@googlegroups.com,eric.adum@gmail.com,12/08/2014,13:27:15
14a28dd20fd65bfe,Chase Lochmiller <chaselochmiller@gmail.com>,"""thesophists@googlegroups.com"" <thesophists@googlegroups.com>",eric.adum@gmail.com,12/22/2014,17:05:41
14a28dd20fd65bfe,Jason Liang <jason.g.liang@gmail.com>,thesophists@googlegroups.com,eric.adum@gmail.com,12/22/2014,17:19:05
14a28dd20fd65bfe,Evan Tindell <tindell.evan@gmail.com>,"""thesophists@googlegroups.com"" <thesophists@googlegroups.com>",eric.adum@gmail.com,12/22/2014,17:32:10
14a28dd20fd65bfe,Nick Sisler <nick.sisler@gmail.com>,thesophists@googlegroups.com,eric.adum@gmail.com,12/22/2014,17:34:36
14a28dd20fd65bfe,Evan Tindell <tindell.evan@gmail.com>,"""thesophists@googlegroups.com"" <thesophists@googlegroups.com>",eric.adum@gmail.com,12/22/2014,17:36:31
14a28dd20fd65bfe,Chase Lochmiller <chaselochmiller@gmail.com>,"""thesophists@googlegroups.com"" <thesophists@googlegroups.com>",eric.adum@gmail.com,12/30/2014,21:25:33
14a28dd20fd65bfe,Ryan Ballentine <rballentine@gmail.com>,"""thesophists@googlegroups.com"" <thesophists@googlegroups.com>",eric.adum@gmail.com,12/31/2014,00:24:48
14a28dd20fd65bfe,Ryan Ballentine <rballentine@gmail.com>,"""thesophists@googlegroups.com"" <thesophists@googlegroups.com>",eric.adum@gmail.com,12/31/2014,22:53:48
14a28dd20fd65bfe,Peter Sheppard <peterasheppard@gmail.com>,thesophists@googlegroups.com,eric.adum@gmail.com,01/08/2015,16:56:12
14a28dd20fd65bfe,Evan Tindell <tindell.evan@gmail.com>,"""thesophists@googlegroups.com"" <thesophists@googlegroups.com>",eric.adum@gmail.com,01/09/2015,03:22:43
14a28dd20fd65bfe,Evan Tindell <tindell.evan@gmail.com>,"""thesophists@googlegroups.com"" <thesophists@googlegroups.com>",eric.adum@gmail.com,01/09/2015,03:32:40
14a28dd20fd65bfe,Evan Tindell <tindell.evan@gmail.com>,"""thesophists@googlegroups.com"" <thesophists@googlegroups.com>",eric.adum@gmail.com,01/09/2015,03:48:10
14a28dd20fd65bfe,Evan Tindell <tindell.evan@gmail.com>,"""thesophists@googlegroups.com"" <thesophists@googlegroups.com>",eric.adum@gmail.com,01/11/2015,12:59:27
14acf8562fa4a0bc,Evan Tindell <tindell.evan@gmail.com>,"""thesophists@googlegroups.com"" <thesophists@googlegroups.com>",eric.adum@gmail.com,01/09/2015,16:26:31
14acf8562fa4a0bc,Erik Dykema <dykema@gmail.com>,"""thesophists@googlegroups.com"" <thesophists@googlegroups.com>",eric.adum@gmail.com,01/09/2015,19:58:56
14acf78dc97a9474,Evan Tindell <tindell.evan@gmail.com>,"""thesophists@googlegroups.com"" <thesophists@googlegroups.com>",eric.adum@gmail.com,01/09/2015,16:12:51
14acf78dc97a9474,Craig Bielski <craig.bielski@gmail.com>,thesophists@googlegroups.com,eric.adum@gmail.com,01/09/2015,16:21:04
14acf78dc97a9474,Craig Bielski <craig.bielski@gmail.com>,thesophists@googlegroups.com,eric.adum@gmail.com,01/09/2015,16:23:56
14acf78dc97a9474,David Shin <shin.david@gmail.com>,"""thesophists@googlegroups.com"" <thesophists@googlegroups.com>",eric.adum@gmail.com,01/09/2015,17:39:58
14aca744e0d8eb3e,DeRon Brown <dmbrown2010@gmail.com>,The Sophists <thesophists@googlegroups.com>,eric.adum@gmail.com,01/08/2015,16:50:26
14035def9ddec7c6,Steve Amanti <stamanti@gmail.com>,thesophists@googlegroups.com,eric.adum@gmail.com,07/31/2013,17:55:38
14035def9ddec7c6,"""Christopher D'Annunzio"" <danunz@gmail.com>",thesophists@googlegroups.com,eric.adum@gmail.com,08/01/2013,17:26:49
14035def9ddec7c6,Evan Tindell <tindell.evan@gmail.com>,"""thesophists@googlegroups.com"" <thesophists@googlegroups.com>",eric.adum@gmail.com,08/02/2013,17:21:00
14035def9ddec7c6,Jeffrey Tiberii <jeff.tiberii@gmail.com>,thesophists@googlegroups.com,eric.adum@gmail.com,08/03/2013,12:41:06
14035def9ddec7c6,Evan Tindell <tindell.evan@gmail.com>,"""thesophists@googlegroups.com"" <thesophists@googlegroups.com>",eric.adum@gmail.com,08/03/2013,17:13:57
14035def9ddec7c6,Brennan Sherry <brennan.sherry@gmail.com>,thesophists@googlegroups.com,eric.adum@gmail.com,11/22/2013,01:43:27
14035def9ddec7c6,Steve Amanti <stamanti@gmail.com>,"""thesophists@googlegroups.com"" <thesophists@googlegroups.com>",eric.adum@gmail.com,11/22/2013,01:47:41
14035def9ddec7c6,Jeffrey Tiberii <jeff.tiberii@gmail.com>,thesophists@googlegroups.com,eric.adum@gmail.com,11/22/2013,17:19:16
14035def9ddec7c6,Evan Tindell <tindell.evan@gmail.com>,"""thesophists@googlegroups.com"" <thesophists@googlegroups.com>",eric.adum@gmail.com,01/07/2015,22:39:09
14ac564b68d1aab3,Evan Tindell <tindell.evan@gmail.com>,"""thesophists@googlegroups.com"" <thesophists@googlegroups.com>",eric.adum@gmail.com,01/07/2015,17:14:38
14aba75a5fd70c48,Evan Tindell <tindell.evan@gmail.com>,"""thesophists@googlegroups.com"" <thesophists@googlegroups.com>",eric.adum@gmail.com,01/05/2015,14:17:18
14aba75a5fd70c48,Kurt Grant <kurtinja@gmail.com>,thesophists@googlegroups.com,eric.adum@gmail.com,01/06/2015,02:11:48
14aba75a5fd70c48,Erik Dykema <dykema@gmail.com>,"""thesophists@googlegroups.com"" <thesophists@googlegroups.com>",eric.adum@gmail.com,01/06/2015,13:56:50
14aba75a5fd70c48,Joe Miler <joe.miler@gmail.com>,thesophists@googlegroups.com,eric.adum@gmail.com,01/06/2015,16:05:30
14aba75a5fd70c48,Alejandro Gonzalez <alejandro523@gmail.com>,"""thesophists@googlegroups.com"" <thesophists@googlegroups.com>",eric.adum@gmail.com,01/06/2015,16:19:58
14aba75a5fd70c48,Alejandro Gonzalez <alejandro523@gmail.com>,"""thesophists@googlegroups.com"" <thesophists@googlegroups.com>",eric.adum@gmail.com,01/06/2015,16:21:07
14aba75a5fd70c48,Erik Dykema <dykema@gmail.com>,"""thesophists@googlegroups.com"" <thesophists@googlegroups.com>",eric.adum@gmail.com,01/06/2015,16:43:19
14aba75a5fd70c48,David Shin <shin.david@gmail.com>,"""thesophists@googlegroups.com"" <thesophists@googlegroups.com>",eric.adum@gmail.com,01/06/2015,16:45:44
14aba75a5fd70c48,Kurt Grant <kurtinja@gmail.com>,thesophists@googlegroups.com,eric.adum@gmail.com,01/06/2015,17:16:08
149e34fd53174036,Ryan Ballentine <rballentine@gmail.com>,"""thesophists@googlegroups.com"" <thesophists@googlegroups.com>",eric.adum@gmail.com,11/24/2014,19:37:48
149e34fd53174036,Erik Dykema <dykema@gmail.com>,"""thesophists@googlegroups.com"" <thesophists@googlegroups.com>",eric.adum@gmail.com,11/24/2014,20:46:37
149e34fd53174036,Christopher Sipola <sipolac@gmail.com>,thesophists@googlegroups.com,eric.adum@gmail.com,11/24/2014,20:57:48
149e34fd53174036,Ryan Ballentine <rballentine@gmail.com>,"""thesophists@googlegroups.com"" <thesophists@googlegroups.com>",eric.adum@gmail.com,11/25/2014,01:36:43
149e34fd53174036,Ravi Mishra <ravimishra@gmail.com>,"""thesophists@googlegroups.com"" <thesophists@googlegroups.com>",eric.adum@gmail.com,11/25/2014,17:58:13
149e34fd53174036,Ryan Ballentine <rballentine@gmail.com>,"""thesophists@googlegroups.com"" <thesophists@googlegroups.com>",eric.adum@gmail.com,11/25/2014,19:34:34
149e34fd53174036,Kevin Rice <kevtrice@gmail.com>,"""the.sophists"" <thesophists@googlegroups.com>",eric.adum@gmail.com,11/26/2014,05:18:22
149e34fd53174036,Brennan Sherry <brennan.sherry@gmail.com>,"""thesophists@googlegroups.com"" <thesophists@googlegroups.com>",eric.adum@gmail.com,11/26/2014,18:19:22
149e34fd53174036,Brennan Sherry <brennan.sherry@gmail.com>,"""thesophists@googlegroups.com"" <thesophists@googlegroups.com>",eric.adum@gmail.com,11/26/2014,18:24:06
149e34fd53174036,Ryan Ballentine <rballentine@gmail.com>,"""thesophists@googlegroups.com"" <thesophists@googlegroups.com>",eric.adum@gmail.com,11/26/2014,18:33:56
149e34fd53174036,Christopher Sipola <sipolac@gmail.com>,thesophists@googlegroups.com,eric.adum@gmail.com,11/26/2014,20:19:10
149e34fd53174036,Ryan Ballentine <rballentine@gmail.com>,"""thesophists@googlegroups.com"" <thesophists@googlegroups.com>",eric.adum@gmail.com,12/10/2014,06:29:17
149e34fd53174036,Christopher Sipola <sipolac@gmail.com>,thesophists@googlegroups.com,eric.adum@gmail.com,12/15/2014,20:14:21
149e34fd53174036,Evan Tindell <tindell.evan@gmail.com>,"""thesophists@googlegroups.com"" <thesophists@googlegroups.com>",eric.adum@gmail.com,01/01/2015,16:03:20
149e34fd53174036,Christopher Sipola <sipolac@gmail.com>,thesophists@googlegroups.com,eric.adum@gmail.com,01/03/2015,05:44:12
149e34fd53174036,Evan Tindell <tindell.evan@gmail.com>,"""thesophists@googlegroups.com"" <thesophists@googlegroups.com>",eric.adum@gmail.com,01/04/2015,00:40:54
14894b5e3a1cf3df,Joe Miler <joe.miler@gmail.com>,thesophists@googlegroups.com,eric.adum@gmail.com,09/20/2014,20:17:00
14894b5e3a1cf3df,Evan Tindell <tindell.evan@gmail.com>,"""thesophists@googlegroups.com"" <thesophists@googlegroups.com>",eric.adum@gmail.com,09/25/2014,12:51:17
14894b5e3a1cf3df,Evan Tindell <tindell.evan@gmail.com>,"""thesophists@googlegroups.com"" <thesophists@googlegroups.com>",eric.adum@gmail.com,09/25/2014,13:16:26
14894b5e3a1cf3df,David Shin <shin.david@gmail.com>,"""thesophists@googlegroups.com"" <thesophists@googlegroups.com>",eric.adum@gmail.com,09/25/2014,13:54:34
14894b5e3a1cf3df,Joe Miler <joe.miler@gmail.com>,thesophists@googlegroups.com,eric.adum@gmail.com,09/25/2014,15:20:18
14894b5e3a1cf3df,Joe Miler <joe.miler@gmail.com>,thesophists@googlegroups.com,eric.adum@gmail.com,09/25/2014,15:31:36
14894b5e3a1cf3df,Brennan Sherry <brennan.sherry@gmail.com>,"""thesophists@googlegroups.com"" <thesophists@googlegroups.com>",eric.adum@gmail.com,09/25/2014,15:44:33
14894b5e3a1cf3df,David Shin <shin.david@gmail.com>,"""thesophists@googlegroups.com"" <thesophists@googlegroups.com>",eric.adum@gmail.com,09/25/2014,15:46:57
14894b5e3a1cf3df,Evan Tindell <tindell.evan@gmail.com>,"""thesophists@googlegroups.com"" <thesophists@googlegroups.com>",eric.adum@gmail.com,09/25/2014,16:12:15
14894b5e3a1cf3df,Brennan Sherry <brennan.sherry@gmail.com>,"""thesophists@googlegroups.com"" <thesophists@googlegroups.com>",eric.adum@gmail.com,09/25/2014,16:35:40
14894b5e3a1cf3df,Evan Tindell <tindell.evan@gmail.com>,"""thesophists@googlegroups.com"" <thesophists@googlegroups.com>",eric.adum@gmail.com,09/25/2014,16:49:13
14894b5e3a1cf3df,Alejandro Gonzalez <alejandro523@gmail.com>,"""thesophists@googlegroups.com"" <thesophists@googlegroups.com>",eric.adum@gmail.com,09/25/2014,16:52:24
14894b5e3a1cf3df,Brennan Sherry <brennan.sherry@gmail.com>,"""thesophists@googlegroups.com"" <thesophists@googlegroups.com>",eric.adum@gmail.com,09/25/2014,16:52:56
14894b5e3a1cf3df,Evan Tindell <tindell.evan@gmail.com>,"""thesophists@googlegroups.com"" <thesophists@googlegroups.com>",eric.adum@gmail.com,09/25/2014,17:03:31
14894b5e3a1cf3df,Joe Miler <joe.miler@gmail.com>,thesophists@googlegroups.com,eric.adum@gmail.com,09/25/2014,17:14:08
14894b5e3a1cf3df,Brennan Sherry <brennan.sherry@gmail.com>,"""thesophists@googlegroups.com"" <thesophists@googlegroups.com>",eric.adum@gmail.com,09/25/2014,17:15:03
14894b5e3a1cf3df,Kevin Rice <kevtrice@gmail.com>,"""the.sophists"" <thesophists@googlegroups.com>",eric.adum@gmail.com,09/25/2014,17:22:17
14894b5e3a1cf3df,Evan Tindell <tindell.evan@gmail.com>,"""thesophists@googlegroups.com"" <thesophists@googlegroups.com>",eric.adum@gmail.com,09/25/2014,19:49:34
14894b5e3a1cf3df,Kevin Rice <kevtrice@gmail.com>,"""the.sophists"" <thesophists@googlegroups.com>",eric.adum@gmail.com,09/25/2014,22:02:02
14894b5e3a1cf3df,Ravi Mishra <ravimishra@gmail.com>,"""thesophists@googlegroups.com"" <thesophists@googlegroups.com>",eric.adum@gmail.com,09/25/2014,22:14:24
14894b5e3a1cf3df,Evan Tindell <tindell.evan@gmail.com>,"""thesophists@googlegroups.com"" <thesophists@googlegroups.com>",eric.adum@gmail.com,09/25/2014,22:19:05
14894b5e3a1cf3df,Kevin Rice <kevtrice@gmail.com>,"""the.sophists"" <thesophists@googlegroups.com>",eric.adum@gmail.com,09/25/2014,23:36:17
14894b5e3a1cf3df,Kwame Hall <kwamejh@gmail.com>,thesophists@googlegroups.com,eric.adum@gmail.com,09/26/2014,01:40:21
14894b5e3a1cf3df,David Shin <shin.david@gmail.com>,"""thesophists@googlegroups.com"" <thesophists@googlegroups.com>",eric.adum@gmail.com,09/26/2014,04:48:27
14894b5e3a1cf3df,Evan Tindell <tindell.evan@gmail.com>,"""thesophists@googlegroups.com"" <thesophists@googlegroups.com>",eric.adum@gmail.com,09/26/2014,13:47:14
14894b5e3a1cf3df,George Blaha <george@blahafamily.com>,thesophists@googlegroups.com,eric.adum@gmail.com,09/26/2014,19:23:50
14894b5e3a1cf3df,"""shin.david"" <shin.david@gmail.com>",thesophists@googlegroups.com,eric.adum@gmail.com,09/26/2014,19:47:36
14894b5e3a1cf3df,Evan Tindell <tindell.evan@gmail.com>,"""thesophists@googlegroups.com"" <thesophists@googlegroups.com>",eric.adum@gmail.com,09/26/2014,20:12:41
14894b5e3a1cf3df,Ravi Mishra <ravimishra@gmail.com>,"""thesophists@googlegroups.com"" <thesophists@googlegroups.com>",eric.adum@gmail.com,09/27/2014,01:41:30
14894b5e3a1cf3df,Ravi Mishra <ravimishra@gmail.com>,"""thesophists@googlegroups.com"" <thesophists@googlegroups.com>",eric.adum@gmail.com,09/27/2014,14:03:08
14894b5e3a1cf3df,Saahil Mehra <saahilm@gmail.com>,"""thesophists@googlegroups.com"" <thesophists@googlegroups.com>",eric.adum@gmail.com,09/27/2014,17:38:16
14894b5e3a1cf3df,Evan Tindell <tindell.evan@gmail.com>,"""thesophists@googlegroups.com"" <thesophists@googlegroups.com>",eric.adum@gmail.com,09/29/2014,18:44:17
14894b5e3a1cf3df,Christopher Sipola <sipolac@gmail.com>,thesophists@googlegroups.com,eric.adum@gmail.com,10/05/2014,20:34:55
14894b5e3a1cf3df,Erik Dykema <dykema@gmail.com>,"""thesophists@googlegroups.com"" <thesophists@googlegroups.com>",eric.adum@gmail.com,10/05/2014,22:33:29
14894b5e3a1cf3df,Erik Dykema <dykema@gmail.com>,"""thesophists@googlegroups.com"" <thesophists@googlegroups.com>",eric.adum@gmail.com,10/06/2014,01:10:18
14894b5e3a1cf3df,Evan Tindell <tindell.evan@gmail.com>,"""thesophists@googlegroups.com"" <thesophists@googlegroups.com>",eric.adum@gmail.com,10/06/2014,16:26:49
14894b5e3a1cf3df,Erik Dykema <dykema@gmail.com>,"""thesophists@googlegroups.com"" <thesophists@googlegroups.com>",eric.adum@gmail.com,10/06/2014,18:03:07
14894b5e3a1cf3df,Evan Tindell <tindell.evan@gmail.com>,"""thesophists@googlegroups.com"" <thesophists@googlegroups.com>",eric.adum@gmail.com,01/01/2015,16:30:54
14894b5e3a1cf3df,David Shin <shin.david@gmail.com>,"""thesophists@googlegroups.com"" <thesophists@googlegroups.com>",eric.adum@gmail.com,01/01/2015,17:33:09
14894b5e3a1cf3df,Alejandro Gonzalez <alejandro523@gmail.com>,"""thesophists@googlegroups.com"" <thesophists@googlegroups.com>",eric.adum@gmail.com,01/01/2015,17:58:25
14894b5e3a1cf3df,Evan Tindell <tindell.evan@gmail.com>,"""thesophists@googlegroups.com"" <thesophists@googlegroups.com>",eric.adum@gmail.com,01/01/2015,18:44:12
14894b5e3a1cf3df,Kevin Rice <kevtrice@gmail.com>,"""the.sophists"" <thesophists@googlegroups.com>",eric.adum@gmail.com,01/01/2015,23:48:46
14894b5e3a1cf3df,Evan Tindell <tindell.evan@gmail.com>,"""thesophists@googlegroups.com"" <thesophists@googlegroups.com>",eric.adum@gmail.com,01/02/2015,15:34:49
14894b5e3a1cf3df,Evan Tindell <tindell.evan@gmail.com>,"""thesophists@googlegroups.com"" <thesophists@googlegroups.com>",eric.adum@gmail.com,01/02/2015,17:31:24
14894b5e3a1cf3df,Christopher Sipola <sipolac@gmail.com>,thesophists@googlegroups.com,eric.adum@gmail.com,01/02/2015,19:48:15
14894b5e3a1cf3df,Erik Dykema <dykema@gmail.com>,"""thesophists@googlegroups.com"" <thesophists@googlegroups.com>",eric.adum@gmail.com,01/02/2015,20:24:49
14894b5e3a1cf3df,Evan Tindell <tindell.evan@gmail.com>,"""thesophists@googlegroups.com"" <thesophists@googlegroups.com>",eric.adum@gmail.com,01/02/2015,20:54:33
14a4c08adc0d78f9,Evan Tindell <tindell.evan@gmail.com>,"""thesophists@googlegroups.com"" <thesophists@googlegroups.com>",eric.adum@gmail.com,12/15/2014,03:40:44
14a4c08adc0d78f9,Christopher Sipola <sipolac@gmail.com>,thesophists@googlegroups.com,eric.adum@gmail.com,12/15/2014,22:29:43
14a2cf0768a3a56c,Chase Lochmiller <chaselochmiller@gmail.com>,"""thesophists@googlegroups.com"" <thesophists@googlegroups.com>",eric.adum@gmail.com,12/09/2014,02:46:04
148fd1dc5a89f168,Jason Liang <jason.g.liang@gmail.com>,thesophists@googlegroups.com,eric.adum@gmail.com,10/11/2014,02:50:58
148fd1dc5a89f168,Andrew Dallas <andrew.r.dallas@gmail.com>,"""thesophists@googlegroups.com"" <thesophists@googlegroups.com>",eric.adum@gmail.com,12/07/2014,18:16:18
149ee02e4532dd35,Kevin Rice <kevtrice@gmail.com>,"""the.sophists"" <thesophists@googlegroups.com>",eric.adum@gmail.com,11/26/2014,21:29:46
149e0e9a30b6cd72,Kevin Rice <kevtrice@gmail.com>,"""the.sophists"" <thesophists@googlegroups.com>",eric.adum@gmail.com,11/24/2014,08:27:07
149b9deda9af7d03,Chase Lochmiller <chaselochmiller@gmail.com>,thesophists@googlegroups.com,eric.adum@gmail.com,11/16/2014,18:30:27
149b9deda9af7d03,Chase Lochmiller <chaselochmiller@gmail.com>,"""thesophists@googlegroups.com"" <thesophists@googlegroups.com>",eric.adum@gmail.com,11/16/2014,18:52:29
14712837c0a5a447,Brennan Sherry <brennan.sherry@gmail.com>,"""thesophists@googlegroups.com"" <thesophists@googlegroups.com>",eric.adum@gmail.com,07/07/2014,20:28:12
14712837c0a5a447,Ravi Mishra <ravimishra@gmail.com>,"""thesophists@googlegroups.com"" <thesophists@googlegroups.com>",eric.adum@gmail.com,07/07/2014,20:54:51
14712837c0a5a447,Andrew Dallas <andrew.r.dallas@gmail.com>,"""thesophists@googlegroups.com"" <thesophists@googlegroups.com>",eric.adum@gmail.com,07/07/2014,21:07:08
14712837c0a5a447,Brennan Sherry <brennan.sherry@gmail.com>,"""thesophists@googlegroups.com"" <thesophists@googlegroups.com>",eric.adum@gmail.com,07/07/2014,21:20:07
14712837c0a5a447,Alejandro Gonzalez <alejandro523@gmail.com>,"""thesophists@googlegroups.com"" <thesophists@googlegroups.com>",eric.adum@gmail.com,07/07/2014,21:24:26
14712837c0a5a447,dykema@gmail.com,thesophists@googlegroups.com,eric.adum@gmail.com,07/07/2014,21:36:26
14712837c0a5a447,Saahil Mehra <saahilm@gmail.com>,"""thesophists@googlegroups.com"" <thesophists@googlegroups.com>",eric.adum@gmail.com,07/07/2014,21:46:41
14712837c0a5a447,Ravi Mishra <ravimishra@gmail.com>,"""thesophists@googlegroups.com"" <thesophists@googlegroups.com>",eric.adum@gmail.com,07/07/2014,22:39:37
14712837c0a5a447,Brennan Sherry <brennan.sherry@gmail.com>,"""thesophists@googlegroups.com"" <thesophists@googlegroups.com>",eric.adum@gmail.com,07/07/2014,23:20:23
14712837c0a5a447,Ravi Mishra <ravimishra@gmail.com>,"""thesophists@googlegroups.com"" <thesophists@googlegroups.com>",eric.adum@gmail.com,07/07/2014,23:29:33
14712837c0a5a447,Brennan Sherry <brennan.sherry@gmail.com>,"""thesophists@googlegroups.com"" <thesophists@googlegroups.com>",eric.adum@gmail.com,07/07/2014,23:40:47
14712837c0a5a447,Evan Tindell <tindell.evan@gmail.com>,"""thesophists@googlegroups.com"" <thesophists@googlegroups.com>",eric.adum@gmail.com,07/08/2014,00:12:37
14712837c0a5a447,Brennan Sherry <brennan.sherry@gmail.com>,"""thesophists@googlegroups.com"" <thesophists@googlegroups.com>",eric.adum@gmail.com,07/08/2014,00:17:03
14712837c0a5a447,Ravi Mishra <ravimishra@gmail.com>,"""thesophists@googlegroups.com"" <thesophists@googlegroups.com>",eric.adum@gmail.com,07/08/2014,16:56:37
14712837c0a5a447,Evan Tindell <tindell.evan@gmail.com>,"""thesophists@googlegroups.com"" <thesophists@googlegroups.com>",eric.adum@gmail.com,07/08/2014,18:03:59
14712837c0a5a447,dykema@gmail.com,thesophists@googlegroups.com,eric.adum@gmail.com,07/08/2014,18:04:58
14712837c0a5a447,Ravi Mishra <ravimishra@gmail.com>,"""thesophists@googlegroups.com"" <thesophists@googlegroups.com>",eric.adum@gmail.com,07/09/2014,00:59:56
14712837c0a5a447,dykema@gmail.com,thesophists@googlegroups.com,eric.adum@gmail.com,07/09/2014,02:33:12
14712837c0a5a447,Ravi Mishra <ravimishra@gmail.com>,"""thesophists@googlegroups.com"" <thesophists@googlegroups.com>",eric.adum@gmail.com,07/09/2014,06:07:55
14712837c0a5a447,dykema@gmail.com,thesophists@googlegroups.com,eric.adum@gmail.com,07/10/2014,00:23:35
14712837c0a5a447,Brennan Sherry <brennan.sherry@gmail.com>,"""thesophists@googlegroups.com"" <thesophists@googlegroups.com>",eric.adum@gmail.com,07/10/2014,18:14:51
14712837c0a5a447,George Blaha <george@blahafamily.com>,thesophists@googlegroups.com,eric.adum@gmail.com,07/10/2014,19:06:52
14712837c0a5a447,Brennan Sherry <brennan.sherry@gmail.com>,"""thesophists@googlegroups.com"" <thesophists@googlegroups.com>",eric.adum@gmail.com,07/10/2014,19:17:01
14712837c0a5a447,George Blaha <george@blahafamily.com>,The Sophists <thesophists@googlegroups.com>,eric.adum@gmail.com,07/10/2014,20:26:30
14712837c0a5a447,dykema@gmail.com,thesophists@googlegroups.com,eric.adum@gmail.com,07/10/2014,22:11:24
14712837c0a5a447,Chisoanya Ibegbu <chiso.ibegbu@gmail.com>,thesophists@googlegroups.com,eric.adum@gmail.com,07/11/2014,12:00:34
14712837c0a5a447,Ravi Mishra <ravimishra@gmail.com>,"""thesophists@googlegroups.com"" <thesophists@googlegroups.com>",eric.adum@gmail.com,07/11/2014,13:53:01
14712837c0a5a447,Erik Dykema <dykema@gmail.com>,"""thesophists@googlegroups.com"" <thesophists@googlegroups.com>",eric.adum@gmail.com,07/11/2014,14:24:38
14712837c0a5a447,dykema@gmail.com,"""thesophists@googlegroups.com"" <thesophists@googlegroups.com>",eric.adum@gmail.com,07/19/2014,20:42:49
14712837c0a5a447,Erik Dykema <dykema@gmail.com>,"""thesophists@googlegroups.com"" <thesophists@googlegroups.com>",eric.adum@gmail.com,11/16/2014,04:36:36
14654727b31de4f9,Chase Lochmiller <chaselochmiller@gmail.com>,"""thesophists@googlegroups.com"" <thesophists@googlegroups.com>",eric.adum@gmail.com,05/31/2014,22:42:06
14654727b31de4f9,Joe Miler <joe.miler@gmail.com>,thesophists@googlegroups.com,eric.adum@gmail.com,06/01/2014,17:52:06
14654727b31de4f9,Alejandro Gonzalez <alejandro523@gmail.com>,"""thesophists@googlegroups.com"" <thesophists@googlegroups.com>",eric.adum@gmail.com,06/01/2014,17:58:01
14654727b31de4f9,Ravi Mishra <ravimishra@gmail.com>,"""thesophists@googlegroups.com"" <thesophists@googlegroups.com>",eric.adum@gmail.com,06/01/2014,22:43:57
14654727b31de4f9,Saahil Mehra <saahilm@gmail.com>,"""thesophists@googlegroups.com"" <thesophists@googlegroups.com>",eric.adum@gmail.com,06/02/2014,05:18:03
14654727b31de4f9,Kurt Grant <kurtinja@gmail.com>,thesophists@googlegroups.com,eric.adum@gmail.com,06/02/2014,05:47:18
14654727b31de4f9,Joe Miler <joe.miler@gmail.com>,thesophists@googlegroups.com,eric.adum@gmail.com,06/02/2014,15:06:28
14654727b31de4f9,Evan Tindell <tindell.evan@gmail.com>,"""thesophists@googlegroups.com"" <thesophists@googlegroups.com>",eric.adum@gmail.com,06/02/2014,15:27:05
14654727b31de4f9,Evan Tindell <tindell.evan@gmail.com>,"""thesophists@googlegroups.com"" <thesophists@googlegroups.com>",eric.adum@gmail.com,06/03/2014,12:49:58
14654727b31de4f9,David Iba <davidiba@gmail.com>,thesophists@googlegroups.com,eric.adum@gmail.com,11/10/2014,05:41:29
14654727b31de4f9,Kwame Hall <kwamejh@gmail.com>,thesophists@googlegroups.com,eric.adum@gmail.com,11/12/2014,02:48:18
14654727b31de4f9,Saahil Mehra <saahilm@gmail.com>,"""thesophists@googlegroups.com"" <thesophists@googlegroups.com>",eric.adum@gmail.com,11/12/2014,04:21:04
14654727b31de4f9,Alejandro Gonzalez <alejandro523@gmail.com>,"""thesophists@googlegroups.com"" <thesophists@googlegroups.com>",eric.adum@gmail.com,11/12/2014,05:06:13
14654727b31de4f9,Evan Tindell <tindell.evan@gmail.com>,"""thesophists@googlegroups.com"" <thesophists@googlegroups.com>",eric.adum@gmail.com,11/12/2014,14:25:48
14654727b31de4f9,Evan Tindell <tindell.evan@gmail.com>,"""thesophists@googlegroups.com"" <thesophists@googlegroups.com>",eric.adum@gmail.com,11/12/2014,14:31:39
14654727b31de4f9,Marvin Arnold <marvinmarnold@gmail.com>,thesophists <thesophists@googlegroups.com>,eric.adum@gmail.com,11/12/2014,15:11:27
14654727b31de4f9,Evan Tindell <tindell.evan@gmail.com>,"""thesophists@googlegroups.com"" <thesophists@googlegroups.com>",eric.adum@gmail.com,11/12/2014,16:13:45
1444c4da05b64271,Kevin Rice <kevtrice@gmail.com>,"""the.sophists"" <thesophists@googlegroups.com>",eric.adum@gmail.com,02/19/2014,22:38:59
1444c4da05b64271,Evan Tindell <tindell.evan@gmail.com>,"""thesophists@googlegroups.com"" <thesophists@googlegroups.com>",eric.adum@gmail.com,02/20/2014,03:44:05
1444c4da05b64271,Kyle Doherty <kyledoherty@gmail.com>,thesophists@googlegroups.com,eric.adum@gmail.com,02/20/2014,03:44:53
1444c4da05b64271,Evan Tindell <tindell.evan@gmail.com>,"""thesophists@googlegroups.com"" <thesophists@googlegroups.com>",eric.adum@gmail.com,02/20/2014,04:11:41
1444c4da05b64271,Kyle Doherty <kyledoherty@gmail.com>,thesophists@googlegroups.com,eric.adum@gmail.com,02/20/2014,04:25:23
1444c4da05b64271,Evan Tindell <tindell.evan@gmail.com>,"""thesophists@googlegroups.com"" <thesophists@googlegroups.com>",eric.adum@gmail.com,02/20/2014,05:34:00
1444c4da05b64271,Kyle Doherty <kyledoherty@gmail.com>,thesophists@googlegroups.com,eric.adum@gmail.com,02/20/2014,06:13:36
1444c4da05b64271,Jason Liang <jason.g.liang@gmail.com>,thesophists@googlegroups.com,eric.adum@gmail.com,02/20/2014,17:25:01
1444c4da05b64271,Tim White <twhite2121@gmail.com>,thesophists@googlegroups.com,eric.adum@gmail.com,10/29/2014,13:22:43
1444c4da05b64271,Brennan Sherry <brennan.sherry@gmail.com>,"""thesophists@googlegroups.com"" <thesophists@googlegroups.com>",eric.adum@gmail.com,10/29/2014,17:20:49
1444c4da05b64271,Evan Tindell <tindell.evan@gmail.com>,"""thesophists@googlegroups.com"" <thesophists@googlegroups.com>",eric.adum@gmail.com,10/30/2014,18:05:56
1444c4da05b64271,Kyle Doherty <kyledoherty@gmail.com>,thesophists@googlegroups.com,eric.adum@gmail.com,10/30/2014,20:36:07
1444c4da05b64271,Nitin Perumbeti <nitper@gmail.com>,thesophists@googlegroups.com,eric.adum@gmail.com,11/10/2014,21:06:59
1491fce2def9651a,Ravi Mishra <ravimishra@gmail.com>,"""thesophists@googlegroups.com"" <thesophists@googlegroups.com>",eric.adum@gmail.com,10/17/2014,20:30:25
12d57657f41ed954,Jesse Chandler <chandlerj@gmail.com>,thesophists@googlegroups.com,eric.adum@gmail.com,01/05/2011,18:17:02
12d57657f41ed954,Alejandro Gonzalez <alejandro523@gmail.com>,"""thesophists@googlegroups.com"" <thesophists@googlegroups.com>",eric.adum@gmail.com,01/05/2011,23:40:54
12d57657f41ed954,Alejandro Gonzalez <alejandro523@gmail.com>,"""thesophists@googlegroups.com"" <thesophists@googlegroups.com>",eric.adum@gmail.com,01/05/2011,23:42:06
12d57657f41ed954,Brennan Sherry <brennan.sherry@gmail.com>,thesophists@googlegroups.com,eric.adum@gmail.com,01/05/2011,23:50:46
12d57657f41ed954,Jesse Chandler <chandlerj@gmail.com>,thesophists@googlegroups.com,eric.adum@gmail.com,01/06/2011,00:25:29
12d57657f41ed954,Evan Tindell <tindell.evan@gmail.com>,thesophists@googlegroups.com,eric.adum@gmail.com,01/06/2011,00:39:54
12d57657f41ed954,chaselochmiller@gmail.com,thesophists@googlegroups.com,eric.adum@gmail.com,01/06/2011,00:51:35
12d57657f41ed954,Brennan Sherry <brennan.sherry@gmail.com>,thesophists@googlegroups.com,eric.adum@gmail.com,01/06/2011,01:08:28
12d57657f41ed954,Evan Tindell <tindell.evan@gmail.com>,"""thesophists@googlegroups.com"" <thesophists@googlegroups.com>",eric.adum@gmail.com,01/06/2011,04:01:33
12d57657f41ed954,Jesse Chandler <chandlerj@gmail.com>,thesophists@googlegroups.com,eric.adum@gmail.com,01/06/2011,12:16:52
12d57657f41ed954,Evan Tindell <tindell.evan@gmail.com>,"""thesophists@googlegroups.com"" <thesophists@googlegroups.com>",eric.adum@gmail.com,07/16/2014,18:11:26
12d57657f41ed954,Jason Liang <jason.g.liang@gmail.com>,thesophists@googlegroups.com,eric.adum@gmail.com,07/16/2014,19:29:22
12d57657f41ed954,Evan Tindell <tindell.evan@gmail.com>,"""thesophists@googlegroups.com"" <thesophists@googlegroups.com>",eric.adum@gmail.com,08/06/2014,15:14:29
12d57657f41ed954,Evan Tindell <tindell.evan@gmail.com>,"""thesophists@googlegroups.com"" <thesophists@googlegroups.com>",eric.adum@gmail.com,10/16/2014,14:58:14
14914a197de30f5c,Ravi Mishra <ravimishra@gmail.com>,"""thesophists@googlegroups.com"" <thesophists@googlegroups.com>",eric.adum@gmail.com,10/15/2014,16:25:52
148fadbd4bf8dfea,Camilo Huerta <camilo.huerta@gmail.com>,thesophists@googlegroups.com,eric.adum@gmail.com,10/10/2014,16:19:42
148e640983427499,Jason Liang <jason.g.liang@gmail.com>,thesophists@googlegroups.com,eric.adum@gmail.com,10/06/2014,16:17:45
148e640983427499,Philip Deutsch <pmdizzle@gmail.com>,"""thesophists@googlegroups com"" <thesophists@googlegroups.com>",eric.adum@gmail.com,10/06/2014,16:25:40
148e640983427499,Philip Deutsch <pmdizzle@gmail.com>,"""thesophists@googlegroups com"" <thesophists@googlegroups.com>",eric.adum@gmail.com,10/06/2014,16:28:42
148e1c75e311a38c,Erik Dykema <dykema@gmail.com>,"""thesophists@googlegroups.com"" <thesophists@googlegroups.com>",eric.adum@gmail.com,10/05/2014,19:26:31
148e1c75e311a38c,Christopher Sipola <sipolac@gmail.com>,thesophists@googlegroups.com,eric.adum@gmail.com,10/06/2014,02:15:45
148aed44508dd08f,Kevin Rice <kevtrice@gmail.com>,"""the.sophists"" <thesophists@googlegroups.com>",eric.adum@gmail.com,09/25/2014,21:59:59
148aed44508dd08f,Brennan Sherry <brennan.sherry@gmail.com>,"""thesophists@googlegroups.com"" <thesophists@googlegroups.com>",eric.adum@gmail.com,09/25/2014,22:07:26
148aed44508dd08f,DeRon Brown <dmbrown2010@gmail.com>,The Sophists <thesophists@googlegroups.com>,eric.adum@gmail.com,09/26/2014,12:51:45
1486893ce32bf697,Kevin Rice <kevtrice@gmail.com>,"""the.sophists"" <thesophists@googlegroups.com>",eric.adum@gmail.com,09/12/2014,06:36:09
1486893ce32bf697,Erik Dykema <dykema@gmail.com>,"""thesophists@googlegroups.com"" <thesophists@googlegroups.com>",eric.adum@gmail.com,09/12/2014,14:54:15
1486893ce32bf697,DeRon Brown <dmbrown2010@gmail.com>,The Sophists <thesophists@googlegroups.com>,eric.adum@gmail.com,09/12/2014,15:27:48
1486893ce32bf697,Evan Tindell <tindell.evan@gmail.com>,"""thesophists@googlegroups.com"" <thesophists@googlegroups.com>",eric.adum@gmail.com,09/13/2014,01:17:11
1486893ce32bf697,Kevin Rice <kevtrice@gmail.com>,"""the.sophists"" <thesophists@googlegroups.com>",eric.adum@gmail.com,09/13/2014,02:17:44
1486893ce32bf697,Erik Dykema <dykema@gmail.com>,"""thesophists@googlegroups.com"" <thesophists@googlegroups.com>",eric.adum@gmail.com,09/13/2014,02:25:00
1486893ce32bf697,Erik Dykema <dykema@gmail.com>,"""thesophists@googlegroups.com"" <thesophists@googlegroups.com>",eric.adum@gmail.com,09/13/2014,02:46:41
1486893ce32bf697,David Iba <davidiba@gmail.com>,thesophists@googlegroups.com,eric.adum@gmail.com,09/13/2014,10:08:53
1486893ce32bf697,Ian Rice <ianrobertrice@gmail.com>,"""thesophists@googlegroups.com"" <thesophists@googlegroups.com>",eric.adum@gmail.com,09/15/2014,20:33:31
1486893ce32bf697,Evan Tindell <tindell.evan@gmail.com>,"""thesophists@googlegroups.com"" <thesophists@googlegroups.com>",eric.adum@gmail.com,09/24/2014,12:16:33
1486893ce32bf697,David Nole <davidnole@gmail.com>,thesophists@googlegroups.com,eric.adum@gmail.com,09/24/2014,12:57:30
1486893ce32bf697,Ian Rice <ianrobertrice@gmail.com>,"""thesophists@googlegroups.com"" <thesophists@googlegroups.com>",eric.adum@gmail.com,09/25/2014,06:42:09
1486893ce32bf697,Erik Dykema <dykema@gmail.com>,"""thesophists@googlegroups.com"" <thesophists@googlegroups.com>",eric.adum@gmail.com,09/26/2014,00:30:28
14589026be150212,Kevin Rice <kevtrice@gmail.com>,"""the.sophists"" <thesophists@googlegroups.com>",eric.adum@gmail.com,04/22/2014,10:36:26
14589026be150212,Andrew Dallas <andrew.r.dallas@gmail.com>,"""thesophists@googlegroups.com"" <thesophists@googlegroups.com>",eric.adum@gmail.com,04/22/2014,13:42:20
14589026be150212,Kevin Rice <kevtrice@gmail.com>,"""the.sophists"" <thesophists@googlegroups.com>",eric.adum@gmail.com,04/22/2014,21:15:29
14589026be150212,Kevin Rice <kevtrice@gmail.com>,"""the.sophists"" <thesophists@googlegroups.com>",eric.adum@gmail.com,05/05/2014,09:14:39
14589026be150212,Kevin Rice <kevtrice@gmail.com>,"""the.sophists"" <thesophists@googlegroups.com>",eric.adum@gmail.com,09/24/2014,00:33:09
14589026be150212,Brennan Sherry <brennan.sherry@gmail.com>,"""thesophists@googlegroups.com"" <thesophists@googlegroups.com>",eric.adum@gmail.com,09/24/2014,00:41:02
14589026be150212,Kevin Rice <kevtrice@gmail.com>,"""the.sophists"" <thesophists@googlegroups.com>",eric.adum@gmail.com,09/24/2014,00:51:15
14589026be150212,Evan Tindell <tindell.evan@gmail.com>,"""thesophists@googlegroups.com"" <thesophists@googlegroups.com>",eric.adum@gmail.com,09/24/2014,12:22:14
14282c51d201d41a,Kevin Rice <kevtrice@gmail.com>,"""the.sophists"" <thesophists@googlegroups.com>",eric.adum@gmail.com,11/23/2013,02:23:24
14282c51d201d41a,Saahil Mehra <saahilm@gmail.com>,"""thesophists@googlegroups.com"" <thesophists@googlegroups.com>",eric.adum@gmail.com,09/24/2014,06:21:07
1322120fc896d05a,Erik Dykema <dykema@gmail.com>,"""the.sophists"" <thesophists@googlegroups.com>",eric.adum@gmail.com,08/31/2011,18:36:40
1322120fc896d05a,Stone <stonemit@gmail.com>,"""thesophists@googlegroups.com"" <thesophists@googlegroups.com>",eric.adum@gmail.com,08/31/2011,18:55:26
1322120fc896d05a,John Vivian <preppiejack@gmail.com>,thesophists@googlegroups.com,eric.adum@gmail.com,08/31/2011,19:10:46
1322120fc896d05a,Kevin Rice <kevtrice@gmail.com>,"""the.sophists"" <thesophists@googlegroups.com>",eric.adum@gmail.com,08/31/2011,19:14:03
1322120fc896d05a,"""Christopher D'Annunzio"" <danunz@gmail.com>",thesophists@googlegroups.com,eric.adum@gmail.com,08/31/2011,19:38:01
1322120fc896d05a,"""stonemit@gmail.com"" <stonemit@gmail.com>",thesophists@googlegroups.com,eric.adum@gmail.com,08/31/2011,19:46:18
1322120fc896d05a,"""Christopher D'Annunzio"" <danunz@gmail.com>",thesophists@googlegroups.com,eric.adum@gmail.com,08/31/2011,20:04:20
1322120fc896d05a,"""stonemit@gmail.com"" <stonemit@gmail.com>",thesophists@googlegroups.com,eric.adum@gmail.com,08/31/2011,20:29:31
1322120fc896d05a,Nitin Perumbeti <nitper@gmail.com>,thesophists@googlegroups.com,eric.adum@gmail.com,08/31/2011,20:34:25
1322120fc896d05a,Kevin Rice <kevtrice@gmail.com>,"""thesophists@googlegroups.com"" <thesophists@googlegroups.com>",eric.adum@gmail.com,08/31/2011,20:54:54
1322120fc896d05a,Brennan Sherry <brennan.sherry@gmail.com>,thesophists@googlegroups.com,eric.adum@gmail.com,08/31/2011,21:11:36
1322120fc896d05a,Alejandro Gonzalez <alejandro523@gmail.com>,thesophists@googlegroups.com,eric.adum@gmail.com,08/31/2011,22:18:56
1322120fc896d05a,Alejandro Gonzalez <alejandro523@gmail.com>,thesophists@googlegroups.com,eric.adum@gmail.com,08/31/2011,22:26:46
1322120fc896d05a,Christopher Sipola <sipolac@gmail.com>,thesophists@googlegroups.com,eric.adum@gmail.com,08/31/2011,22:27:32
1322120fc896d05a,Ravi Mishra <ravimishra@gmail.com>,thesophists@googlegroups.com,eric.adum@gmail.com,08/31/2011,22:30:15
1322120fc896d05a,"""stonemit@gmail.com"" <stonemit@gmail.com>",thesophists@googlegroups.com,eric.adum@gmail.com,09/01/2011,03:24:47
1322120fc896d05a,Erik Dykema <dykema@gmail.com>,thesophists@googlegroups.com,eric.adum@gmail.com,09/01/2011,14:24:25
1322120fc896d05a,Ravi Mishra <ravimishra@gmail.com>,thesophists@googlegroups.com,eric.adum@gmail.com,09/01/2011,15:51:09
1322120fc896d05a,Kevin Rice <kevtrice@gmail.com>,thesophists@googlegroups.com,eric.adum@gmail.com,09/01/2011,16:54:50
1322120fc896d05a,Jesse Chandler <chandlerj@gmail.com>,thesophists@googlegroups.com,eric.adum@gmail.com,09/01/2011,16:56:49
1322120fc896d05a,John Vivian <preppiejack@gmail.com>,thesophists@googlegroups.com,eric.adum@gmail.com,09/01/2011,17:19:47
1322120fc896d05a,"""stonemit@gmail.com"" <stonemit@gmail.com>",thesophists@googlegroups.com,eric.adum@gmail.com,09/01/2011,17:19:54
1322120fc896d05a,Kevin Rice <kevtrice@gmail.com>,"""the.sophists"" <thesophists@googlegroups.com>",eric.adum@gmail.com,09/01/2011,17:20:51
1322120fc896d05a,Kevin Rice <kevtrice@gmail.com>,"""the.sophists"" <thesophists@googlegroups.com>",eric.adum@gmail.com,09/01/2011,17:57:05
1322120fc896d05a,Robert Utz <utzyfb33@gmail.com>,thesophists@googlegroups.com,eric.adum@gmail.com,09/01/2011,22:00:29
1322120fc896d05a,Christopher Sipola <sipolac@gmail.com>,thesophists@googlegroups.com,eric.adum@gmail.com,09/01/2011,23:42:12
1322120fc896d05a,Erik Dykema <dykema@gmail.com>,thesophists@googlegroups.com,eric.adum@gmail.com,09/02/2011,21:35:26
1322120fc896d05a,Kurt Grant <kurtinja@gmail.com>,thesophists@googlegroups.com,eric.adum@gmail.com,09/03/2011,02:42:23
1322120fc896d05a,Christopher Sipola <sipolac@gmail.com>,thesophists@googlegroups.com,eric.adum@gmail.com,09/03/2011,19:09:02
1322120fc896d05a,Erik Dykema <dykema@gmail.com>,thesophists@googlegroups.com,eric.adum@gmail.com,09/06/2011,12:35:58
1322120fc896d05a,Christopher Sipola <sipolac@gmail.com>,thesophists@googlegroups.com,eric.adum@gmail.com,09/08/2011,19:08:03
1322120fc896d05a,Kevin Rice <kevtrice@gmail.com>,"""the.sophists"" <thesophists@googlegroups.com>",eric.adum@gmail.com,09/09/2011,17:32:17
1322120fc896d05a,Chase Lochmiller <chaselochmiller@gmail.com>,"""thesophists@googlegroups.com"" <thesophists@googlegroups.com>",eric.adum@gmail.com,10/22/2011,02:34:25
1322120fc896d05a,Evan Tindell <tindell.evan@gmail.com>,thesophists@googlegroups.com,eric.adum@gmail.com,10/22/2011,17:23:54
1322120fc896d05a,Chase Lochmiller <chaselochmiller@gmail.com>,"""thesophists@googlegroups.com"" <thesophists@googlegroups.com>",eric.adum@gmail.com,10/22/2011,18:17:34
1322120fc896d05a,Erik <dykema@gmail.com>,thesophists@googlegroups.com,eric.adum@gmail.com,09/08/2014,15:14:28
1451b715b56671f5,Ravi Mishra <ravi@imleagues.com>,"""thesophists@googlegroups.com"" <thesophists@googlegroups.com>",eric.adum@gmail.com,04/01/2014,03:59:24
1451b715b56671f5,Saahil Mehra <saahilm@gmail.com>,"""thesophists@googlegroups.com"" <thesophists@googlegroups.com>",eric.adum@gmail.com,04/01/2014,05:25:04
1451b715b56671f5,Evan Tindell <tindell.evan@gmail.com>,"""thesophists@googlegroups.com"" <thesophists@googlegroups.com>",eric.adum@gmail.com,04/01/2014,15:30:59
1451b715b56671f5,Ryan Ballentine <rballentine@gmail.com>,thesophists@googlegroups.com,eric.adum@gmail.com,04/01/2014,15:34:51
1451b715b56671f5,Evan Tindell <tindell.evan@gmail.com>,"""thesophists@googlegroups.com"" <thesophists@googlegroups.com>",eric.adum@gmail.com,04/02/2014,16:23:40
1451b715b56671f5,Evan Tindell <tindell.evan@gmail.com>,"""thesophists@googlegroups.com"" <thesophists@googlegroups.com>",eric.adum@gmail.com,04/04/2014,20:24:09
1451b715b56671f5,Evan Tindell <tindell.evan@gmail.com>,"""thesophists@googlegroups.com"" <thesophists@googlegroups.com>",eric.adum@gmail.com,04/06/2014,18:30:49
1451b715b56671f5,Evan Tindell <tindell.evan@gmail.com>,"""thesophists@googlegroups.com"" <thesophists@googlegroups.com>",eric.adum@gmail.com,09/05/2014,14:33:02
147f14605b9a0de7,Ian Rice <ianrobertrice@gmail.com>,"""thesophists@googlegroups.com"" <thesophists@googlegroups.com>",eric.adum@gmail.com,08/20/2014,02:36:42
147f14605b9a0de7,Ravi Mishra <ravimishra@gmail.com>,"""thesophists@googlegroups.com"" <thesophists@googlegroups.com>",eric.adum@gmail.com,08/20/2014,06:09:08
147f14605b9a0de7,Saahil Mehra <saahilm@gmail.com>,"""thesophists@googlegroups.com"" <thesophists@googlegroups.com>",eric.adum@gmail.com,08/20/2014,23:45:30
147f14605b9a0de7,Alejandro Gonzalez <alejandro523@gmail.com>,"""thesophists@googlegroups.com"" <thesophists@googlegroups.com>",eric.adum@gmail.com,08/20/2014,23:49:54
147f14605b9a0de7,Andrew Dallas <andrew.r.dallas@gmail.com>,"""thesophists@googlegroups.com"" <thesophists@googlegroups.com>",eric.adum@gmail.com,08/21/2014,00:18:58
147f14605b9a0de7,Evan Tindell <tindell.evan@gmail.com>,"""thesophists@googlegroups.com"" <thesophists@googlegroups.com>",eric.adum@gmail.com,09/03/2014,21:54:24
14821a1e5a287423,"""Christopher D'Annunzio"" <danunz@gmail.com>","""thesophists@googlegroups.com"" <thesophists@googlegroups.com>",eric.adum@gmail.com,08/29/2014,11:58:50
14821a1e5a287423,Andrew Dallas <andrew.r.dallas@gmail.com>,"""thesophists@googlegroups.com"" <thesophists@googlegroups.com>",eric.adum@gmail.com,08/29/2014,12:18:16
13ab9e4c465e440d,Brennan Sherry <brennan.sherry@gmail.com>,thesophists@googlegroups.com,eric.adum@gmail.com,11/01/2012,06:18:11
13ab9e4c465e440d,Philip Deutsch <pmdizzle@gmail.com>,thesophists@googlegroups.com,eric.adum@gmail.com,11/01/2012,15:41:34
13ab9e4c465e440d,Evan Tindell <tindell.evan@gmail.com>,"""thesophists@googlegroups.com"" <thesophists@googlegroups.com>",eric.adum@gmail.com,11/01/2012,15:51:03
13ab9e4c465e440d,Philip Deutsch <pmdizzle@gmail.com>,thesophists@googlegroups.com,eric.adum@gmail.com,11/01/2012,16:25:22
13ab9e4c465e440d,Eric Barba <eric.barba@gmail.com>,thesophists@googlegroups.com,eric.adum@gmail.com,11/01/2012,16:29:48
13ab9e4c465e440d,Kevin Rice <kevtrice@gmail.com>,thesophists@googlegroups.com,eric.adum@gmail.com,11/01/2012,17:14:40
13ab9e4c465e440d,Alejandro Gonzalez <alejandro523@gmail.com>,"""thesophists@googlegroups.com"" <thesophists@googlegroups.com>",eric.adum@gmail.com,11/04/2012,23:11:36
13ab9e4c465e440d,Evan Tindell <tindell.evan@gmail.com>,"""thesophists@googlegroups.com"" <thesophists@googlegroups.com>",eric.adum@gmail.com,08/19/2014,16:37:38
12c56240eba70ab5,Kevin Rice <kevtrice@gmail.com>,"""the.sophists"" <thesophists@googlegroups.com>",eric.adum@gmail.com,11/16/2010,19:23:09
12c56240eba70ab5,Kevin Rice <kevtrice@gmail.com>,"""the.sophists"" <thesophists@googlegroups.com>",eric.adum@gmail.com,08/13/2014,23:36:06
14797c96b28c7348,David Shin <shin.david@gmail.com>,"""thesophists@googlegroups.com"" <thesophists@googlegroups.com>",eric.adum@gmail.com,08/02/2014,17:34:25
14797c96b28c7348,Ryan Ballentine <rballentine@gmail.com>,"""thesophists@googlegroups.com"" <thesophists@googlegroups.com>",eric.adum@gmail.com,08/08/2014,01:56:32
14797c96b28c7348,David Shin <shin.david@gmail.com>,"""thesophists@googlegroups.com"" <thesophists@googlegroups.com>",eric.adum@gmail.com,08/08/2014,03:29:22
14797c96b28c7348,David Shin <shin.david@gmail.com>,"""thesophists@googlegroups.com"" <thesophists@googlegroups.com>",eric.adum@gmail.com,08/08/2014,14:12:53
1479cc4b9df65fa7,Kevin Rice <kevtrice@gmail.com>,thesophists@googlegroups.com,eric.adum@gmail.com,08/03/2014,16:47:19
1479cc4b9df65fa7,Ian Rice <ianrobertrice@gmail.com>,"""thesophists@googlegroups.com"" <thesophists@googlegroups.com>",eric.adum@gmail.com,08/03/2014,17:13:20
1479cc4b9df65fa7,Andrew Dallas <andrew.r.dallas@gmail.com>,"""thesophists@googlegroups.com"" <thesophists@googlegroups.com>",eric.adum@gmail.com,08/05/2014,02:16:28
12fe6aa54edf5aa3,Brennan Sherry <brennan.sherry@gmail.com>,thesophists@googlegroups.com,eric.adum@gmail.com,05/13/2011,00:03:12
12fe6aa54edf5aa3,"""stonemit@gmail.com"" <stonemit@gmail.com>",thesophists@googlegroups.com,eric.adum@gmail.com,05/13/2011,07:04:20
12fe6aa54edf5aa3,Brennan Sherry <brennan.sherry@gmail.com>,thesophists@googlegroups.com,eric.adum@gmail.com,05/13/2011,17:36:00
12fe6aa54edf5aa3,"""stonemit@gmail.com"" <stonemit@gmail.com>",thesophists@googlegroups.com,eric.adum@gmail.com,05/13/2011,20:11:57
12fe6aa54edf5aa3,Brennan Sherry <brennan.sherry@gmail.com>,thesophists@googlegroups.com,eric.adum@gmail.com,05/08/2012,16:09:39
12fe6aa54edf5aa3,Joe Miler <joe.miler@gmail.com>,thesophists@googlegroups.com,eric.adum@gmail.com,05/08/2012,16:22:42
12fe6aa54edf5aa3,Joe Miler <joe.miler@gmail.com>,thesophists@googlegroups.com,eric.adum@gmail.com,05/08/2012,16:26:43
12fe6aa54edf5aa3,Brennan Sherry <brennan.sherry@gmail.com>,thesophists@googlegroups.com,eric.adum@gmail.com,09/26/2012,01:03:06
12fe6aa54edf5aa3,Evan Tindell <tindell.evan@gmail.com>,thesophists@googlegroups.com,eric.adum@gmail.com,09/26/2012,02:55:15
12fe6aa54edf5aa3,Brennan Sherry <brennan.sherry@gmail.com>,"""thesophists@googlegroups.com"" <thesophists@googlegroups.com>",eric.adum@gmail.com,05/28/2014,02:43:01
12fe6aa54edf5aa3,Jeffrey Tiberii <jeff.tiberii@gmail.com>,thesophists@googlegroups.com,eric.adum@gmail.com,06/05/2014,18:33:58
12fe6aa54edf5aa3,Brennan Sherry <brennan.sherry@gmail.com>,"""thesophists@googlegroups.com"" <thesophists@googlegroups.com>",eric.adum@gmail.com,06/05/2014,23:02:55
12fe6aa54edf5aa3,Steve Amanti <stamanti@gmail.com>,"""thesophists@googlegroups.com"" <thesophists@googlegroups.com>",eric.adum@gmail.com,06/06/2014,13:05:15
12fe6aa54edf5aa3,Brennan Sherry <brennan.sherry@gmail.com>,"""thesophists@googlegroups.com"" <thesophists@googlegroups.com>",eric.adum@gmail.com,07/30/2014,18:01:29
12fe6aa54edf5aa3,dykema@gmail.com,thesophists@googlegroups.com,eric.adum@gmail.com,07/30/2014,18:46:39
12fe6aa54edf5aa3,Joe Miler <joe.miler@gmail.com>,thesophists@googlegroups.com,eric.adum@gmail.com,07/31/2014,00:27:17
12fe6aa54edf5aa3,Brennan Sherry <brennan.sherry@gmail.com>,"""thesophists@googlegroups.com"" <thesophists@googlegroups.com>",eric.adum@gmail.com,07/31/2014,00:39:07
12fe6aa54edf5aa3,Joe Miler <joe.miler@gmail.com>,thesophists@googlegroups.com,eric.adum@gmail.com,07/31/2014,01:06:33
12fe6aa54edf5aa3,Ryan Ballentine <rballentine@gmail.com>,"""thesophists@googlegroups.com"" <thesophists@googlegroups.com>",eric.adum@gmail.com,07/31/2014,17:44:46
12fe6aa54edf5aa3,Ravi Mishra <ravimishra@gmail.com>,"""thesophists@googlegroups.com"" <thesophists@googlegroups.com>",eric.adum@gmail.com,07/31/2014,17:53:08
12fe6aa54edf5aa3,Brennan Sherry <brennan.sherry@gmail.com>,"""thesophists@googlegroups.com"" <thesophists@googlegroups.com>",eric.adum@gmail.com,07/31/2014,17:53:37
12fe6aa54edf5aa3,Brennan Sherry <brennan.sherry@gmail.com>,"""thesophists@googlegroups.com"" <thesophists@googlegroups.com>",eric.adum@gmail.com,07/31/2014,17:55:36
12fe6aa54edf5aa3,Brennan Sherry <brennan.sherry@gmail.com>,"""thesophists@googlegroups.com"" <thesophists@googlegroups.com>",eric.adum@gmail.com,07/31/2014,18:07:34
12fe6aa54edf5aa3,Ravi Mishra <ravimishra@gmail.com>,"""thesophists@googlegroups.com"" <thesophists@googlegroups.com>",eric.adum@gmail.com,07/31/2014,19:03:45
12fe6aa54edf5aa3,David Shin <shin.david@gmail.com>,"""thesophists@googlegroups.com"" <thesophists@googlegroups.com>",eric.adum@gmail.com,07/31/2014,19:27:27
12fe6aa54edf5aa3,Joe Miler <joe.miler@gmail.com>,thesophists@googlegroups.com,eric.adum@gmail.com,07/31/2014,20:44:36
12fe6aa54edf5aa3,Kevin Rice <kevtrice@gmail.com>,"""the.sophists"" <thesophists@googlegroups.com>",eric.adum@gmail.com,07/31/2014,20:52:37
12fe6aa54edf5aa3,David Shin <shin.david@gmail.com>,"""thesophists@googlegroups.com"" <thesophists@googlegroups.com>",eric.adum@gmail.com,07/31/2014,21:40:52
12fe6aa54edf5aa3,Camilo Huerta <camilo.huerta@gmail.com>,thesophists@googlegroups.com,eric.adum@gmail.com,07/31/2014,21:48:26
12fe6aa54edf5aa3,dykema@gmail.com,thesophists@googlegroups.com,eric.adum@gmail.com,07/31/2014,22:00:06
12fe6aa54edf5aa3,Evan Tindell <tindell.evan@gmail.com>,"""thesophists@googlegroups.com"" <thesophists@googlegroups.com>",eric.adum@gmail.com,07/31/2014,22:06:50
12fe6aa54edf5aa3,Brennan Sherry <brennan.sherry@gmail.com>,"""thesophists@googlegroups.com"" <thesophists@googlegroups.com>",eric.adum@gmail.com,07/31/2014,22:51:11
12fe6aa54edf5aa3,Robert Utz <utzyfb33@gmail.com>,"""thesophists@googlegroups.com"" <thesophists@googlegroups.com>",eric.adum@gmail.com,08/01/2014,00:25:41
12fe6aa54edf5aa3,David Shin <shin.david@gmail.com>,"""thesophists@googlegroups.com"" <thesophists@googlegroups.com>",eric.adum@gmail.com,08/01/2014,05:39:47
12fe6aa54edf5aa3,George Blaha <george@blahafamily.com>,The Sophists <thesophists@googlegroups.com>,eric.adum@gmail.com,08/01/2014,14:43:55
12fe6aa54edf5aa3,Evan Tindell <tindell.evan@gmail.com>,"""thesophists@googlegroups.com"" <thesophists@googlegroups.com>",eric.adum@gmail.com,08/01/2014,16:15:42
12fe6aa54edf5aa3,David Shin <shin.david@gmail.com>,"""thesophists@googlegroups.com"" <thesophists@googlegroups.com>",eric.adum@gmail.com,08/02/2014,17:15:08
1478914e7e8c8ad6,Jason Liang <jason.g.liang@gmail.com>,thesophists@googlegroups.com,eric.adum@gmail.com,07/30/2014,21:02:13
14776baf4c7894fc,Jason Liang <jason.g.liang@gmail.com>,thesophists@googlegroups.com,eric.adum@gmail.com,07/27/2014,07:31:09
146877d604167b57,Brennan Sherry <brennan.sherry@gmail.com>,"""thesophists@googlegroups.com"" <thesophists@googlegroups.com>",eric.adum@gmail.com,06/10/2014,20:34:18
146877d604167b57,Steve Amanti <stamanti@gmail.com>,"""thesophists@googlegroups.com"" <thesophists@googlegroups.com>",eric.adum@gmail.com,06/11/2014,12:40:53
146877d604167b57,Brennan Sherry <brennan.sherry@gmail.com>,"""thesophists@googlegroups.com"" <thesophists@googlegroups.com>",eric.adum@gmail.com,07/23/2014,06:06:53
146877d604167b57,DeRon Brown <dmbrown2010@gmail.com>,The Sophists <thesophists@googlegroups.com>,eric.adum@gmail.com,07/23/2014,12:27:27
139e3e5f54dc7650,Nick Sisler <nick.sisler@gmail.com>,thesophists@googlegroups.com,eric.adum@gmail.com,09/20/2012,13:37:21
139e3e5f54dc7650,Christopher Sipola <sipolac@gmail.com>,thesophists@googlegroups.com,eric.adum@gmail.com,09/20/2012,13:48:30
139e3e5f54dc7650,Ryan Ballentine <rballentine@gmail.com>,thesophists@googlegroups.com,eric.adum@gmail.com,09/20/2012,14:22:50
139e3e5f54dc7650,Jeffrey Tiberii <jeff.tiberii@gmail.com>,thesophists@googlegroups.com,eric.adum@gmail.com,09/20/2012,14:39:41
139e3e5f54dc7650,Nick Sisler <nick.sisler@gmail.com>,thesophists@googlegroups.com,eric.adum@gmail.com,09/20/2012,14:39:46
139e3e5f54dc7650,Ravi Mishra <ravimishra@gmail.com>,thesophists@googlegroups.com,eric.adum@gmail.com,09/20/2012,14:49:20
139e3e5f54dc7650,David Iba <davidiba@gmail.com>,thesophists@googlegroups.com,eric.adum@gmail.com,09/20/2012,16:21:07
139e3e5f54dc7650,Askia Howell <askiahowell@gmail.com>,thesophists@googlegroups.com,eric.adum@gmail.com,09/20/2012,18:10:54
139e3e5f54dc7650,Kevin Rice <kevtrice@gmail.com>,thesophists@googlegroups.com,eric.adum@gmail.com,09/28/2012,03:36:03
139e3e5f54dc7650,Nick Sisler <nick.sisler@gmail.com>,thesophists@googlegroups.com,eric.adum@gmail.com,01/14/2014,14:14:24
139e3e5f54dc7650,Ryan Ballentine <rballentine@gmail.com>,thesophists@googlegroups.com,eric.adum@gmail.com,01/14/2014,16:49:56
139e3e5f54dc7650,Nick Sisler <nick.sisler@gmail.com>,thesophists@googlegroups.com,eric.adum@gmail.com,01/14/2014,19:07:12
139e3e5f54dc7650,Ryan Ballentine <rballentine@gmail.com>,"""thesophists@googlegroups.com"" <thesophists@googlegroups.com>",eric.adum@gmail.com,01/14/2014,19:16:32
139e3e5f54dc7650,David Iba <davidiba@gmail.com>,thesophists@googlegroups.com,eric.adum@gmail.com,01/14/2014,20:54:39
139e3e5f54dc7650,Chisoanya Ibegbu <chiso.ibegbu@gmail.com>,thesophists@googlegroups.com,eric.adum@gmail.com,01/15/2014,01:51:20
139e3e5f54dc7650,Brennan Sherry <brennan.sherry@gmail.com>,"""thesophists@googlegroups.com"" <thesophists@googlegroups.com>",eric.adum@gmail.com,01/15/2014,02:17:50
139e3e5f54dc7650,Nick Sisler <nick.sisler@gmail.com>,thesophists@googlegroups.com,eric.adum@gmail.com,01/15/2014,03:10:37
139e3e5f54dc7650,Ryan Ballentine <rballentine@gmail.com>,"""thesophists@googlegroups.com"" <thesophists@googlegroups.com>",eric.adum@gmail.com,01/15/2014,18:20:07
139e3e5f54dc7650,Ravi Mishra <ravimishra@gmail.com>,thesophists@googlegroups.com,eric.adum@gmail.com,01/17/2014,16:02:23
139e3e5f54dc7650,Nick Sisler <nick.sisler@gmail.com>,"Jason Liang <jason.g.liang@gmail.com>, thesophists@googlegroups.com",eric.adum@gmail.com,01/17/2014,16:45:44
139e3e5f54dc7650,David Iba <davidiba@gmail.com>,thesophists@googlegroups.com,eric.adum@gmail.com,06/19/2014,08:52:45
139e3e5f54dc7650,Ravi Mishra <ravimishra@gmail.com>,"""thesophists@googlegroups.com"" <thesophists@googlegroups.com>",eric.adum@gmail.com,07/22/2014,01:18:07
14740e8758772aaa,Kevin Rice <kevtrice@gmail.com>,"""the.sophists"" <thesophists@googlegroups.com>",eric.adum@gmail.com,07/16/2014,20:41:01
14740e8758772aaa,Chisoanya Ibegbu <chiso.ibegbu@gmail.com>,thesophists@googlegroups.com,eric.adum@gmail.com,07/16/2014,21:11:02
14740e8758772aaa,dykema@gmail.com,thesophists@googlegroups.com,eric.adum@gmail.com,07/16/2014,21:13:59
14740e8758772aaa,Andrew Dallas <andrew.r.dallas@gmail.com>,"""thesophists@googlegroups.com"" <thesophists@googlegroups.com>",eric.adum@gmail.com,07/16/2014,21:15:40
14740e8758772aaa,Brennan Sherry <brennan.sherry@gmail.com>,"""thesophists@googlegroups.com"" <thesophists@googlegroups.com>",eric.adum@gmail.com,07/16/2014,21:17:08
14740e8758772aaa,Ian Rice <ianrobertrice@gmail.com>,"""thesophists@googlegroups.com"" <thesophists@googlegroups.com>",eric.adum@gmail.com,07/16/2014,21:31:14
14740e8758772aaa,Walter Song <ywsong14@gmail.com>,"""thesophists@googlegroups.com"" <thesophists@googlegroups.com>",eric.adum@gmail.com,07/16/2014,21:34:06
14740e8758772aaa,Jason Liang <jason.g.liang@gmail.com>,thesophists@googlegroups.com,eric.adum@gmail.com,07/16/2014,22:04:01
14740e8758772aaa,Kevin Rice <kevtrice@gmail.com>,"""the.sophists"" <thesophists@googlegroups.com>",eric.adum@gmail.com,07/16/2014,23:12:52
14740e8758772aaa,Evan Tindell <tindell.evan@gmail.com>,"""thesophists@googlegroups.com"" <thesophists@googlegroups.com>",eric.adum@gmail.com,07/17/2014,02:44:44
14740e8758772aaa,Ian Rice <ianrobertrice@gmail.com>,"""thesophists@googlegroups.com"" <thesophists@googlegroups.com>",eric.adum@gmail.com,07/17/2014,06:52:46
147362a82ec2b573,Brennan Sherry <brennan.sherry@gmail.com>,"""thesophists@googlegroups.com"" <thesophists@googlegroups.com>",eric.adum@gmail.com,07/14/2014,18:37:20
147362a82ec2b573,Kevin Rice <kevtrice@gmail.com>,"""the.sophists"" <thesophists@googlegroups.com>",eric.adum@gmail.com,07/14/2014,20:13:25
147362a82ec2b573,Brennan Sherry <brennan.sherry@gmail.com>,"""thesophists@googlegroups.com"" <thesophists@googlegroups.com>",eric.adum@gmail.com,07/14/2014,21:29:24
147362a82ec2b573,Ravi Mishra <ravimishra@gmail.com>,"""thesophists@googlegroups.com"" <thesophists@googlegroups.com>",eric.adum@gmail.com,07/14/2014,21:46:16
147362a82ec2b573,Brennan Sherry <brennan.sherry@gmail.com>,"""thesophists@googlegroups.com"" <thesophists@googlegroups.com>",eric.adum@gmail.com,07/14/2014,21:52:10
147362a82ec2b573,Kevin Rice <kevtrice@gmail.com>,"""the.sophists"" <thesophists@googlegroups.com>",eric.adum@gmail.com,07/14/2014,23:21:47
147362a82ec2b573,Ravi Mishra <ravimishra@gmail.com>,"""thesophists@googlegroups.com"" <thesophists@googlegroups.com>",eric.adum@gmail.com,07/15/2014,13:40:58
1472e4b7c905dfe9,Kevin Rice <kevtrice@gmail.com>,"""the.sophists"" <thesophists@googlegroups.com>",eric.adum@gmail.com,07/13/2014,05:56:24
1472e4b7c905dfe9,Kevin Rice <kevtrice@gmail.com>,"""the.sophists"" <thesophists@googlegroups.com>",eric.adum@gmail.com,07/14/2014,05:52:49
1472e4b7c905dfe9,Ian Rice <ianrobertrice@gmail.com>,"""thesophists@googlegroups.com"" <thesophists@googlegroups.com>",eric.adum@gmail.com,07/14/2014,15:19:13
1472e4b7c905dfe9,Kevin Rice <kevtrice@gmail.com>,"""the.sophists"" <thesophists@googlegroups.com>",eric.adum@gmail.com,07/14/2014,23:36:33
1472e4b7c905dfe9,Ian Rice <ianrobertrice@gmail.com>,"""thesophists@googlegroups.com"" <thesophists@googlegroups.com>",eric.adum@gmail.com,07/15/2014,01:54:12
1471edbb25f9ca08,Kevin Rice <kevtrice@gmail.com>,"""the.sophists"" <thesophists@googlegroups.com>",eric.adum@gmail.com,07/10/2014,05:59:59
146df5ee5eaff4e5,Ravi Mishra <ravimishra@gmail.com>,"""thesophists@googlegroups.com"" <thesophists@googlegroups.com>",eric.adum@gmail.com,06/27/2014,22:07:36
146df5ee5eaff4e5,George Blaha <george@blahafamily.com>,The Sophists <thesophists@googlegroups.com>,eric.adum@gmail.com,07/06/2014,20:27:43
1414dbe11188bdcc,Kevin Rice <kevtrice@gmail.com>,"""the.sophists"" <thesophists@googlegroups.com>",eric.adum@gmail.com,09/24/2013,02:13:02
1414dbe11188bdcc,David Iba <davidiba@gmail.com>,thesophists@googlegroups.com,eric.adum@gmail.com,06/18/2014,01:59:19
1414dbe11188bdcc,Brennan Sherry <brennan.sherry@gmail.com>,"""thesophists@googlegroups.com"" <thesophists@googlegroups.com>",eric.adum@gmail.com,06/24/2014,17:07:33
1414dbe11188bdcc,Brennan Sherry <brennan.sherry@gmail.com>,"""thesophists@googlegroups.com"" <thesophists@googlegroups.com>",eric.adum@gmail.com,06/24/2014,17:25:04
1414dbe11188bdcc,David Iba <davidiba@gmail.com>,thesophists@googlegroups.com,eric.adum@gmail.com,06/26/2014,04:06:23
1414dbe11188bdcc,David Iba <davidiba@gmail.com>,thesophists@googlegroups.com,eric.adum@gmail.com,07/02/2014,04:23:24
146f28f47c51430d,Jeffrey Tiberii <jeff.tiberii@gmail.com>,thesophists@googlegroups.com,eric.adum@gmail.com,07/01/2014,15:33:33
146f253e93a8d6ea,Jesse Chandler <chandlerj@gmail.com>,thesophists@googlegroups.com,eric.adum@gmail.com,07/01/2014,14:28:43
1442d434d9f784f3,Brennan Sherry <brennan.sherry@gmail.com>,"""thesophists@googlegroups.com"" <thesophists@googlegroups.com>",eric.adum@gmail.com,02/13/2014,21:59:28
1442d434d9f784f3,Brennan Sherry <brennan.sherry@gmail.com>,"""thesophists@googlegroups.com"" <thesophists@googlegroups.com>",eric.adum@gmail.com,06/13/2014,23:02:37
1442d434d9f784f3,Brennan Sherry <brennan.sherry@gmail.com>,"""thesophists@googlegroups.com"" <thesophists@googlegroups.com>",eric.adum@gmail.com,06/24/2014,17:47:59
13ccf59565d05a7b,Nayan Mehta <nayannm@gmail.com>,thesophists@googlegroups.com,eric.adum@gmail.com,02/27/2013,01:10:36
13ccf59565d05a7b,Evan Tindell <tindell.evan@gmail.com>,thesophists@googlegroups.com,eric.adum@gmail.com,02/27/2013,15:18:58
13ccf59565d05a7b,Evan Tindell <tindell.evan@gmail.com>,"""thesophists@googlegroups.com"" <thesophists@googlegroups.com>",eric.adum@gmail.com,06/17/2014,15:38:55
146aa7aa9499ad24,Will Stone <willstone@gmail.com>,"""thesophists@googlegroups.com"" <thesophists@googlegroups.com>",eric.adum@gmail.com,06/17/2014,15:37:52
146a88cd7aab044b,Kevin Rice <kevtrice@gmail.com>,"""the.sophists"" <thesophists@googlegroups.com>",eric.adum@gmail.com,06/17/2014,06:38:39
145ec1dd3e95e086,David Shin <shin.david@gmail.com>,thesophists@googlegroups.com,eric.adum@gmail.com,05/11/2014,16:29:07
145ec1dd3e95e086,Kevin Rice <kevtrice@gmail.com>,"""the.sophists"" <thesophists@googlegroups.com>",eric.adum@gmail.com,05/12/2014,09:49:11
145ec1dd3e95e086,David Shin <shin.david@gmail.com>,thesophists@googlegroups.com,eric.adum@gmail.com,05/14/2014,02:15:56
145ec1dd3e95e086,Kevin Rice <kevtrice@gmail.com>,"""the.sophists"" <thesophists@googlegroups.com>",eric.adum@gmail.com,05/26/2014,19:43:43
145ec1dd3e95e086,"""stonemit@gmail.com"" <stonemit@gmail.com>",thesophists@googlegroups.com,eric.adum@gmail.com,06/09/2014,00:53:13
145ec1dd3e95e086,dykema@gmail.com,thesophists@googlegroups.com,eric.adum@gmail.com,06/09/2014,15:31:45
145ec1dd3e95e086,Kevin Rice <kevtrice@gmail.com>,"""the.sophists"" <thesophists@googlegroups.com>",eric.adum@gmail.com,06/09/2014,22:38:56
145ec1dd3e95e086,David Shin <shin.david@gmail.com>,"""thesophists@googlegroups.com"" <thesophists@googlegroups.com>",eric.adum@gmail.com,06/13/2014,12:47:49
1468765f9e63149b,Brennan Sherry <brennan.sherry@gmail.com>,"""thesophists@googlegroups.com"" <thesophists@googlegroups.com>",eric.adum@gmail.com,06/10/2014,20:08:45
1468765f9e63149b,dykema@gmail.com,thesophists@googlegroups.com,eric.adum@gmail.com,06/12/2014,18:01:04
1468765f9e63149b,Evan Tindell <tindell.evan@gmail.com>,"""thesophists@googlegroups.com"" <thesophists@googlegroups.com>",eric.adum@gmail.com,06/12/2014,18:19:26
1468765f9e63149b,Ravi Mishra <ravimishra@gmail.com>,"""thesophists@googlegroups.com"" <thesophists@googlegroups.com>",eric.adum@gmail.com,06/12/2014,18:46:15
1468765f9e63149b,Evan Tindell <tindell.evan@gmail.com>,"""thesophists@googlegroups.com"" <thesophists@googlegroups.com>",eric.adum@gmail.com,06/12/2014,19:08:06
1468765f9e63149b,Steve Amanti <stamanti@gmail.com>,"""thesophists@googlegroups.com"" <thesophists@googlegroups.com>",eric.adum@gmail.com,06/12/2014,19:09:39
1468765f9e63149b,dykema@gmail.com,thesophists@googlegroups.com,eric.adum@gmail.com,06/12/2014,19:14:08
1468765f9e63149b,Evan Tindell <tindell.evan@gmail.com>,"""thesophists@googlegroups.com"" <thesophists@googlegroups.com>",eric.adum@gmail.com,06/12/2014,20:05:06
1468765f9e63149b,dykema@gmail.com,thesophists@googlegroups.com,eric.adum@gmail.com,06/12/2014,21:07:49
1468765f9e63149b,Evan Tindell <tindell.evan@gmail.com>,"""thesophists@googlegroups.com"" <thesophists@googlegroups.com>",eric.adum@gmail.com,06/12/2014,23:03:29
146883e11e051145,Ravi Mishra <ravimishra@gmail.com>,"""thesophists@googlegroups.com"" <thesophists@googlegroups.com>",eric.adum@gmail.com,06/11/2014,00:04:46
146883e11e051145,George Blaha <george@blahafamily.com>,The Sophists <thesophists@googlegroups.com>,eric.adum@gmail.com,06/11/2014,00:33:46
14684c9d74df7331,Kevin Rice <kevtrice@gmail.com>,"""the.sophists"" <thesophists@googlegroups.com>",eric.adum@gmail.com,06/10/2014,07:58:58
1410fb2ed140427e,Christopher Sipola <sipolac@gmail.com>,thesophists@googlegroups.com,eric.adum@gmail.com,09/12/2013,01:04:26
1410fb2ed140427e,Erik Dykema <dykema@gmail.com>,"""thesophists@googlegroups.com"" <thesophists@googlegroups.com>",eric.adum@gmail.com,09/12/2013,06:42:38
1410fb2ed140427e,Christopher Sipola <sipolac@gmail.com>,thesophists@googlegroups.com,eric.adum@gmail.com,09/12/2013,19:24:39
1410fb2ed140427e,Christopher Sipola <sipolac@gmail.com>,thesophists@googlegroups.com,eric.adum@gmail.com,06/06/2014,20:14:22
1410fb2ed140427e,Ravi Mishra <ravimishra@gmail.com>,"""thesophists@googlegroups.com"" <thesophists@googlegroups.com>",eric.adum@gmail.com,06/09/2014,17:33:11
14109685a11d83c4,Brennan Sherry <brennan.sherry@gmail.com>,thesophists@googlegroups.com,eric.adum@gmail.com,09/10/2013,19:45:15
14109685a11d83c4,DeRon Brown <dmbrown2010@gmail.com>,The Sophists <thesophists@googlegroups.com>,eric.adum@gmail.com,06/09/2014,01:58:03
1464e7063b9a64e0,Chase Lochmiller <chaselochmiller@gmail.com>,thesophists@googlegroups.com,eric.adum@gmail.com,05/30/2014,18:41:11
1464e7063b9a64e0,"""stonemit@gmail.com"" <stonemit@gmail.com>",thesophists@googlegroups.com,eric.adum@gmail.com,06/09/2014,00:30:52
1467da6dd3e89a03,David Iba <davidiba@gmail.com>,thesophists@googlegroups.com,eric.adum@gmail.com,06/08/2014,22:43:45
1465e50375af9c94,Saahil Mehra <saahilm@gmail.com>,"""thesophists@googlegroups.com"" <thesophists@googlegroups.com>",eric.adum@gmail.com,06/02/2014,20:40:23
1465e50375af9c94,David Iba <davidiba@gmail.com>,thesophists@googlegroups.com,eric.adum@gmail.com,06/05/2014,20:40:25
14664b5ebcb7fd63,Philip Deutsch <pmdizzle@gmail.com>,Philip Deutsch <pdeutsch@alum.mit.edu>,eric.adum@gmail.com,06/04/2014,02:29:41
14211cbfe0adc8b9,DeRon Brown <dmbrown2010@gmail.com>,The Sophists <thesophists@googlegroups.com>,eric.adum@gmail.com,11/01/2013,03:54:09
14211cbfe0adc8b9,Evan Tindell <tindell.evan@gmail.com>,"""thesophists@googlegroups.com"" <thesophists@googlegroups.com>",eric.adum@gmail.com,11/05/2013,18:34:42
14211cbfe0adc8b9,dykema@gmail.com,thesophists@googlegroups.com,eric.adum@gmail.com,11/05/2013,18:44:12
14211cbfe0adc8b9,Christopher Sipola <sipolac@gmail.com>,thesophists@googlegroups.com,eric.adum@gmail.com,11/05/2013,18:45:16
14211cbfe0adc8b9,"""Marvin M. Arnold"" <marvinmarnold@gmail.com>",thesophists <thesophists@googlegroups.com>,eric.adum@gmail.com,11/05/2013,21:04:33
14211cbfe0adc8b9,Kurt Grant <kurtinja@gmail.com>,thesophists@googlegroups.com,eric.adum@gmail.com,11/05/2013,23:57:24
14211cbfe0adc8b9,Chase Lochmiller <chaselochmiller@gmail.com>,"""thesophists@googlegroups.com"" <thesophists@googlegroups.com>",eric.adum@gmail.com,11/06/2013,05:04:26
14211cbfe0adc8b9,dykema@gmail.com,thesophists@googlegroups.com,eric.adum@gmail.com,11/07/2013,14:44:12
14211cbfe0adc8b9,Kurt Grant <kurtinja@gmail.com>,thesophists@googlegroups.com,eric.adum@gmail.com,11/07/2013,15:09:13
14211cbfe0adc8b9,DeRon Brown <dmbrown2010@gmail.com>,The Sophists <thesophists@googlegroups.com>,eric.adum@gmail.com,01/10/2014,17:30:57
14211cbfe0adc8b9,Evan Tindell <tindell.evan@gmail.com>,"""thesophists@googlegroups.com"" <thesophists@googlegroups.com>",eric.adum@gmail.com,01/10/2014,18:28:42
14211cbfe0adc8b9,Tim White <twhite2121@gmail.com>,thesophists@googlegroups.com,eric.adum@gmail.com,01/10/2014,18:38:45
14211cbfe0adc8b9,Evan Tindell <tindell.evan@gmail.com>,"""thesophists@googlegroups.com"" <thesophists@googlegroups.com>",eric.adum@gmail.com,01/10/2014,19:00:45
14211cbfe0adc8b9,Ravi Mishra <ravimishra@gmail.com>,"""thesophists@googlegroups.com"" <thesophists@googlegroups.com>",eric.adum@gmail.com,05/30/2014,16:15:22
146256ce82abd3b7,Saahil Mehra <saahilm@gmail.com>,"""thesophists@googlegroups.com"" <thesophists@googlegroups.com>",eric.adum@gmail.com,05/22/2014,19:33:19
14588aba801fa801,Kevin Rice <kevtrice@gmail.com>,"""the.sophists"" <thesophists@googlegroups.com>",eric.adum@gmail.com,04/22/2014,09:01:41
14588aba801fa801,David Iba <davidiba@gmail.com>,thesophists@googlegroups.com,eric.adum@gmail.com,05/07/2014,00:13:19
145b154b4a39dc80,Kevin Rice <kevtrice@gmail.com>,"""the.sophists"" <thesophists@googlegroups.com>",eric.adum@gmail.com,04/30/2014,06:31:08
145b154b4a39dc80,Steve Amanti <stamanti@gmail.com>,"""thesophists@googlegroups.com"" <thesophists@googlegroups.com>",eric.adum@gmail.com,04/30/2014,11:47:27
145b154b4a39dc80,"""Andrew Jensen"" <ajensen796@googlemail.com>",thesophists@googlegroups.com,eric.adum@gmail.com,04/30/2014,12:51:05
145b154b4a39dc80,Philip Deutsch <pmdizzle@gmail.com>,"""thesophists@googlegroups com"" <thesophists@googlegroups.com>",eric.adum@gmail.com,04/30/2014,13:49:31
145b154b4a39dc80,Jason Liang <jason.g.liang@gmail.com>,thesophists@googlegroups.com,eric.adum@gmail.com,04/30/2014,19:06:43
145b154b4a39dc80,"""Andrew Jensen"" <ajensen796@googlemail.com>",thesophists@googlegroups.com,eric.adum@gmail.com,05/01/2014,16:42:04
1459d2de1c5c9e70,Kevin Rice <kevtrice@gmail.com>,"""the.sophists"" <thesophists@googlegroups.com>",eric.adum@gmail.com,04/26/2014,08:36:19
1459d2de1c5c9e70,Evan Tindell <tindell.evan@gmail.com>,"""thesophists@googlegroups.com"" <thesophists@googlegroups.com>",eric.adum@gmail.com,04/30/2014,15:09:14
1459d2de1c5c9e70,Evan Tindell <tindell.evan@gmail.com>,"""thesophists@googlegroups.com"" <thesophists@googlegroups.com>",eric.adum@gmail.com,04/30/2014,15:18:31
145a4a1e58c24b9a,Jason Liang <jason.g.liang@gmail.com>,thesophists@googlegroups.com,eric.adum@gmail.com,04/27/2014,19:20:43
145a4a1e58c24b9a,Andrew Dallas <andrew.r.dallas@gmail.com>,"""thesophists@googlegroups.com"" <thesophists@googlegroups.com>",eric.adum@gmail.com,04/27/2014,19:37:58
145a4a1e58c24b9a,Jeffrey Tiberii <jeff.tiberii@gmail.com>,thesophists@googlegroups.com,eric.adum@gmail.com,04/27/2014,19:51:31
145a4a1e58c24b9a,Ryan Ballentine <rballentine@gmail.com>,"""thesophists@googlegroups.com"" <thesophists@googlegroups.com>",eric.adum@gmail.com,04/27/2014,23:43:09
142b4628628bf809,Ravi Mishra <ravimishra@gmail.com>,thesophists@googlegroups.com,eric.adum@gmail.com,12/02/2013,17:36:43
142b4628628bf809,Philip Deutsch <pmdizzle@gmail.com>,"""thesophists@googlegroups com"" <thesophists@googlegroups.com>",eric.adum@gmail.com,12/03/2013,20:18:56
142b4628628bf809,Evan Tindell <tindell.evan@gmail.com>,"""thesophists@googlegroups.com"" <thesophists@googlegroups.com>",eric.adum@gmail.com,12/11/2013,13:51:06
142b4628628bf809,Ravi Mishra <ravimishra@gmail.com>,thesophists@googlegroups.com,eric.adum@gmail.com,12/12/2013,08:48:52
142b4628628bf809,Evan Tindell <tindell.evan@gmail.com>,"""thesophists@googlegroups.com"" <thesophists@googlegroups.com>",eric.adum@gmail.com,12/12/2013,13:19:19
142b4628628bf809,Andrew Jensen <ajensen796@googlemail.com>,thesophists@googlegroups.com,eric.adum@gmail.com,12/12/2013,17:02:34
142b4628628bf809,Evan Tindell <tindell.evan@gmail.com>,"""thesophists@googlegroups.com"" <thesophists@googlegroups.com>",eric.adum@gmail.com,12/12/2013,17:48:13
142b4628628bf809,Andrew Jensen <ajensen796@googlemail.com>,thesophists@googlegroups.com,eric.adum@gmail.com,12/12/2013,19:18:22
142b4628628bf809,George Ross <george.r.ross@gmail.com>,thesophists@googlegroups.com,eric.adum@gmail.com,12/12/2013,19:27:41
142b4628628bf809,Ravi Mishra <ravimishra@gmail.com>,thesophists@googlegroups.com,eric.adum@gmail.com,12/12/2013,19:31:40
142b4628628bf809,Evan Tindell <tindell.evan@gmail.com>,"""thesophists@googlegroups.com"" <thesophists@googlegroups.com>",eric.adum@gmail.com,01/27/2014,20:53:27
142b4628628bf809,Christopher Sipola <sipolac@gmail.com>,thesophists@googlegroups.com,eric.adum@gmail.com,03/04/2014,22:03:55
142b4628628bf809,Evan Tindell <tindell.evan@gmail.com>,"""thesophists@googlegroups.com"" <thesophists@googlegroups.com>",eric.adum@gmail.com,03/19/2014,22:30:49
142b4628628bf809,Philip Deutsch <pmdizzle@gmail.com>,"""thesophists@googlegroups com"" <thesophists@googlegroups.com>",eric.adum@gmail.com,03/21/2014,21:53:15
142b4628628bf809,Kevin Rice <kevtrice@gmail.com>,"""the.sophists"" <thesophists@googlegroups.com>",eric.adum@gmail.com,03/21/2014,22:18:27
142b4628628bf809,Evan Tindell <tindell.evan@gmail.com>,"""thesophists@googlegroups.com"" <thesophists@googlegroups.com>",eric.adum@gmail.com,04/07/2014,20:33:37
142b4628628bf809,Kevin Rice <kevtrice@gmail.com>,"""the.sophists"" <thesophists@googlegroups.com>",eric.adum@gmail.com,04/15/2014,10:17:59
142b4628628bf809,Evan Tindell <tindell.evan@gmail.com>,"""thesophists@googlegroups.com"" <thesophists@googlegroups.com>",eric.adum@gmail.com,04/21/2014,14:50:25
144adaa3c1462feb,DeRon Brown <dmbrown2010@gmail.com>,The Sophists <thesophists@googlegroups.com>,eric.adum@gmail.com,03/10/2014,20:23:38
144adaa3c1462feb,Kevin Rice <kevtrice@gmail.com>,"""the.sophists"" <thesophists@googlegroups.com>",eric.adum@gmail.com,03/10/2014,21:25:51
144adaa3c1462feb,Chase Lochmiller <chaselochmiller@gmail.com>,"""thesophists@googlegroups.com"" <thesophists@googlegroups.com>",eric.adum@gmail.com,03/11/2014,02:28:58
144adaa3c1462feb,Steve Amanti <stamanti@gmail.com>,"""thesophists@googlegroups.com"" <thesophists@googlegroups.com>",eric.adum@gmail.com,03/11/2014,11:43:10
144adaa3c1462feb,Ravi Mishra <ravimishra@gmail.com>,"""thesophists@googlegroups.com"" <thesophists@googlegroups.com>",eric.adum@gmail.com,03/11/2014,14:24:43
144adaa3c1462feb,Jason Liang <jason.g.liang@gmail.com>,thesophists@googlegroups.com,eric.adum@gmail.com,03/11/2014,20:00:58
144adaa3c1462feb,Kyle Doherty <kyledoherty@gmail.com>,thesophists@googlegroups.com,eric.adum@gmail.com,03/11/2014,20:05:12
144adaa3c1462feb,Philip Deutsch <pmdizzle@gmail.com>,"""thesophists@googlegroups com"" <thesophists@googlegroups.com>",eric.adum@gmail.com,03/11/2014,20:24:06
144adaa3c1462feb,Kyle Doherty <kyledoherty@gmail.com>,thesophists@googlegroups.com,eric.adum@gmail.com,03/11/2014,20:53:37
144adaa3c1462feb,Andrew Jensen <ajensen796@googlemail.com>,thesophists@googlegroups.com,eric.adum@gmail.com,03/11/2014,21:08:01
144adaa3c1462feb,Philip Deutsch <pmdizzle@gmail.com>,"""thesophists@googlegroups com"" <thesophists@googlegroups.com>",eric.adum@gmail.com,03/11/2014,21:31:33
144adaa3c1462feb,Ryan Ballentine <rballentine@gmail.com>,"""thesophists@googlegroups.com"" <thesophists@googlegroups.com>",eric.adum@gmail.com,03/11/2014,22:28:33
144adaa3c1462feb,Brennan Sherry <brennan.sherry@gmail.com>,"""thesophists@googlegroups.com"" <thesophists@googlegroups.com>",eric.adum@gmail.com,03/11/2014,22:35:37
144adaa3c1462feb,Ravi Mishra <ravimishra@gmail.com>,thesophists@googlegroups.com,eric.adum@gmail.com,03/12/2014,03:32:57
144adaa3c1462feb,Alejandro Gonzalez <alejandro523@gmail.com>,"""thesophists@googlegroups.com"" <thesophists@googlegroups.com>",eric.adum@gmail.com,03/12/2014,03:51:26
144adaa3c1462feb,Chisoanya Ibegbu <chiso.ibegbu@gmail.com>,thesophists@googlegroups.com,eric.adum@gmail.com,03/12/2014,13:53:36
144adaa3c1462feb,Evan Tindell <tindell.evan@gmail.com>,"""thesophists@googlegroups.com"" <thesophists@googlegroups.com>",eric.adum@gmail.com,03/12/2014,15:50:42
144adaa3c1462feb,Evan Tindell <tindell.evan@gmail.com>,"""thesophists@googlegroups.com"" <thesophists@googlegroups.com>",eric.adum@gmail.com,03/12/2014,15:59:03
144adaa3c1462feb,Ryan Ballentine <rballentine@gmail.com>,"""thesophists@googlegroups.com"" <thesophists@googlegroups.com>",eric.adum@gmail.com,03/12/2014,16:06:27
144adaa3c1462feb,Philip Deutsch <pmdizzle@gmail.com>,"""thesophists@googlegroups.com"" <thesophists@googlegroups.com>",eric.adum@gmail.com,03/12/2014,16:53:54
144adaa3c1462feb,Ravi Mishra <ravimishra@gmail.com>,"""thesophists@googlegroups.com"" <thesophists@googlegroups.com>",eric.adum@gmail.com,03/12/2014,18:06:19
144adaa3c1462feb,Philip Deutsch <pmdizzle@gmail.com>,"""thesophists@googlegroups com"" <thesophists@googlegroups.com>",eric.adum@gmail.com,03/12/2014,18:30:13
144adaa3c1462feb,Kwame Hall <kwamejh@gmail.com>,thesophists@googlegroups.com,eric.adum@gmail.com,04/17/2014,07:34:54
1454a257f962288e,Kevin Rice <kevtrice@gmail.com>,"""the.sophists"" <thesophists@googlegroups.com>",eric.adum@gmail.com,04/10/2014,05:38:41
1454a257f962288e,Robert Utz <utzyfb33@gmail.com>,"""thesophists@googlegroups.com"" <thesophists@googlegroups.com>",eric.adum@gmail.com,04/10/2014,11:39:58
1454a257f962288e,Evan Tindell <tindell.evan@gmail.com>,"""thesophists@googlegroups.com"" <thesophists@googlegroups.com>",eric.adum@gmail.com,04/10/2014,12:19:27
1454a257f962288e,Ryan Ballentine <rballentine@gmail.com>,"""thesophists@googlegroups.com"" <thesophists@googlegroups.com>",eric.adum@gmail.com,04/10/2014,13:52:49
1454a257f962288e,Kevin Rice <kevtrice@gmail.com>,"""the.sophists"" <thesophists@googlegroups.com>",eric.adum@gmail.com,04/15/2014,10:16:28
1452d94a107f243b,Evan Tindell <tindell.evan@gmail.com>,"""thesophists@googlegroups.com"" <thesophists@googlegroups.com>",eric.adum@gmail.com,04/04/2014,16:30:45
14529097c9d23385,Kevin Rice <kevtrice@gmail.com>,"""the.sophists"" <thesophists@googlegroups.com>",eric.adum@gmail.com,04/03/2014,19:20:37
14518ac351c4922e,Andrew Dallas <andrew.r.dallas@gmail.com>,"""thesophists@googlegroups.com"" <thesophists@googlegroups.com>",eric.adum@gmail.com,03/31/2014,15:04:49
1450b15bc7d4be49,Ravi Mishra <ravimishra@gmail.com>,"""thesophists@googlegroups.com"" <thesophists@googlegroups.com>",eric.adum@gmail.com,03/28/2014,23:45:25
1450b15bc7d4be49,Nitin Perumbeti <nitper@gmail.com>,thesophists <thesophists@googlegroups.com>,eric.adum@gmail.com,03/29/2014,00:02:15
14507660ce260045,Chase Lochmiller <chaselochmiller@gmail.com>,"""thesophists@googlegroups.com"" <thesophists@googlegroups.com>",eric.adum@gmail.com,03/28/2014,06:34:58
14507660ce260045,Alex Morgan <armorgan@alum.mit.edu>,thesophists@googlegroups.com,eric.adum@gmail.com,03/28/2014,16:16:09
14507660ce260045,Ravi Mishra <ravimishra@gmail.com>,"""thesophists@googlegroups.com"" <thesophists@googlegroups.com>",eric.adum@gmail.com,03/28/2014,23:42:18
1450097822fa4744,Brennan Sherry <brennan.sherry@gmail.com>,"""thesophists@googlegroups.com"" <thesophists@googlegroups.com>",eric.adum@gmail.com,03/26/2014,22:51:19
1450097822fa4744,Walter Song <ywsong14@gmail.com>,"""thesophists@googlegroups.com"" <thesophists@googlegroups.com>",eric.adum@gmail.com,03/26/2014,23:09:02
144aac8fea111e56,Kevin Rice <kevtrice@gmail.com>,"""the.sophists"" <thesophists@googlegroups.com>",eric.adum@gmail.com,03/10/2014,06:58:02
144aac8fea111e56,Kevin Rice <kevtrice@gmail.com>,"""the.sophists"" <thesophists@googlegroups.com>",eric.adum@gmail.com,03/11/2014,22:46:15
144aac8fea111e56,Kwame Hall <kwamejh@gmail.com>,thesophists@googlegroups.com,eric.adum@gmail.com,03/25/2014,22:15:10
